EESchema Schematic File Version 4
LIBS:Servo_Node-cache
EELAYER 29 0
EELAYER END
$Descr A4 11693 8268
encoding utf-8
Sheet 1 1
Title "Servo Node"
Date "2019-04-05"
Rev "0.9"
Comp "gbiloba"
Comment1 "By Fred"
Comment2 ""
Comment3 ""
Comment4 ""
$EndDescr
$Comp
L power:GND #PWR0101
U 1 1 5C94A443
P 6900 4550
F 0 "#PWR0101" H 6900 4300 50  0001 C CNN
F 1 "GND" H 6905 4377 50  0000 C CNN
F 2 "" H 6900 4550 50  0001 C CNN
F 3 "" H 6900 4550 50  0001 C CNN
	1    6900 4550
	1    0    0    -1  
$EndComp
$Comp
L power:+3.3V #PWR0102
U 1 1 5C94A47D
P 6900 2550
F 0 "#PWR0102" H 6900 2400 50  0001 C CNN
F 1 "+3.3V" H 6915 2723 50  0000 C CNN
F 2 "" H 6900 2550 50  0001 C CNN
F 3 "" H 6900 2550 50  0001 C CNN
	1    6900 2550
	1    0    0    -1  
$EndComp
$Comp
L power:+3.3V #PWR0103
U 1 1 5C94A491
P 4150 1950
F 0 "#PWR0103" H 4150 1800 50  0001 C CNN
F 1 "+3.3V" H 4165 2123 50  0000 C CNN
F 2 "" H 4150 1950 50  0001 C CNN
F 3 "" H 4150 1950 50  0001 C CNN
	1    4150 1950
	1    0    0    -1  
$EndComp
$Comp
L power:GND #PWR0104
U 1 1 5C94A49E
P 4550 2050
F 0 "#PWR0104" H 4550 1800 50  0001 C CNN
F 1 "GND" H 4555 1877 50  0000 C CNN
F 2 "" H 4550 2050 50  0001 C CNN
F 3 "" H 4550 2050 50  0001 C CNN
	1    4550 2050
	1    0    0    -1  
$EndComp
$Comp
L power:PWR_FLAG #FLG0101
U 1 1 5C94A4C3
P 4550 1950
F 0 "#FLG0101" H 4550 2025 50  0001 C CNN
F 1 "PWR_FLAG" H 4550 2124 50  0000 C CNN
F 2 "" H 4550 1950 50  0001 C CNN
F 3 "~" H 4550 1950 50  0001 C CNN
	1    4550 1950
	1    0    0    -1  
$EndComp
$Comp
L power:PWR_FLAG #FLG0102
U 1 1 5C94A4D7
P 4150 2050
F 0 "#FLG0102" H 4150 2125 50  0001 C CNN
F 1 "PWR_FLAG" H 4150 2223 50  0000 C CNN
F 2 "" H 4150 2050 50  0001 C CNN
F 3 "~" H 4150 2050 50  0001 C CNN
	1    4150 2050
	-1   0    0    1   
$EndComp
Wire Wire Line
	4150 1950 4150 2050
Wire Wire Line
	4550 1950 4550 2050
$Comp
L power:GND #PWR0105
U 1 1 5C94BB4A
P 4900 3700
F 0 "#PWR0105" H 4900 3450 50  0001 C CNN
F 1 "GND" H 4905 3527 50  0000 C CNN
F 2 "" H 4900 3700 50  0001 C CNN
F 3 "" H 4900 3700 50  0001 C CNN
	1    4900 3700
	1    0    0    -1  
$EndComp
$Comp
L power:+3.3V #PWR0106
U 1 1 5C94BB65
P 4900 2700
F 0 "#PWR0106" H 4900 2550 50  0001 C CNN
F 1 "+3.3V" H 4915 2873 50  0000 C CNN
F 2 "" H 4900 2700 50  0001 C CNN
F 3 "" H 4900 2700 50  0001 C CNN
	1    4900 2700
	1    0    0    -1  
$EndComp
Wire Wire Line
	4800 3000 4900 3000
Wire Wire Line
	4800 3200 4900 3200
Text Label 5300 3000 2    50   ~ 0
SDA
Text Label 5300 3200 2    50   ~ 0
SCL
Text Label 7900 3550 2    50   ~ 0
SDA
Text Label 7900 3350 2    50   ~ 0
SCL
Text Label 7900 3050 2    50   ~ 0
PWM3
Text Label 7900 3150 2    50   ~ 0
PWM2
Text Label 7900 3250 2    50   ~ 0
PWM1
Text Label 7900 4050 2    50   ~ 0
PWM0
$Comp
L Connector:Conn_01x08_Male J2
U 1 1 5C94B006
P 4600 3200
F 0 "J2" H 4700 2650 50  0000 C CNN
F 1 "I²C" H 4700 3600 50  0000 C CNN
F 2 "Connector_PinHeader_2.54mm:PinHeader_2x04_P2.54mm_Horizontal" H 4600 3200 50  0001 C CNN
F 3 "~" H 4600 3200 50  0001 C CNN
	1    4600 3200
	1    0    0    1   
$EndComp
Wire Wire Line
	4900 2700 4900 2800
Wire Wire Line
	4800 2800 4900 2800
Connection ~ 4900 2800
Wire Wire Line
	4900 2800 4900 2900
Wire Wire Line
	4800 2900 4900 2900
Wire Wire Line
	4900 3400 4900 3500
Connection ~ 4900 3500
Wire Wire Line
	4800 3100 4900 3100
Wire Wire Line
	4900 3100 4900 3000
Connection ~ 4900 3000
Wire Wire Line
	4800 3300 4900 3300
Wire Wire Line
	4900 3300 4900 3200
Connection ~ 4900 3200
Wire Wire Line
	4800 3400 4900 3400
Wire Wire Line
	4800 3500 4900 3500
$Comp
L Servo_Node-rescue:ATtiny841-SSU-MCU_Microchip_ATtiny U1
U 1 1 5C9A3AEB
P 6900 3550
F 0 "U1" H 6500 4400 50  0000 R CNN
F 1 "ATtiny841-SSU" H 7500 4400 50  0000 R CNN
F 2 "Package_SO:SOIC-14_3.9x8.7mm_P1.27mm" H 6900 3550 50  0001 C CIN
F 3 "http://ww1.microchip.com/downloads/en/DeviceDoc/Atmel-8495-8-bit-AVR-Microcontrollers-ATtiny441-ATtiny841_Datasheet.pdf" H 6900 3550 50  0001 C CNN
	1    6900 3550
	1    0    0    -1  
$EndComp
$Comp
L Device:C C1
U 1 1 5C9AF236
P 5400 2000
F 0 "C1" H 5450 2100 50  0000 L CNN
F 1 "0.1µF" H 5450 1900 50  0000 L CNN
F 2 "Capacitor_SMD:C_1206_3216Metric_Pad1.42x1.75mm_HandSolder" H 5438 1850 50  0001 C CNN
F 3 "~" H 5400 2000 50  0001 C CNN
	1    5400 2000
	1    0    0    -1  
$EndComp
$Comp
L Connector_Generic:Conn_02x03_Odd_Even J6
U 1 1 5C9DDA3C
P 5300 4500
F 0 "J6" H 5350 4700 50  0000 C CNN
F 1 "ISP" H 5350 4300 50  0000 C CNN
F 2 "Connector_PinHeader_2.54mm:PinHeader_2x03_P2.54mm_Vertical" H 5300 4500 50  0001 C CNN
F 3 "~" H 5300 4500 50  0001 C CNN
	1    5300 4500
	1    0    0    -1  
$EndComp
Wire Wire Line
	4900 3500 4900 3700
Wire Wire Line
	5100 4400 4700 4400
$Comp
L power:GND #PWR0109
U 1 1 5CA3408E
P 5650 4650
F 0 "#PWR0109" H 5650 4400 50  0001 C CNN
F 1 "GND" H 5655 4477 50  0000 C CNN
F 2 "" H 5650 4650 50  0001 C CNN
F 3 "" H 5650 4650 50  0001 C CNN
	1    5650 4650
	1    0    0    -1  
$EndComp
Wire Wire Line
	5600 4600 5650 4600
Wire Wire Line
	5650 4600 5650 4650
$Comp
L power:+3.3V #PWR0110
U 1 1 5CA37E84
P 5650 4150
F 0 "#PWR0110" H 5650 4000 50  0001 C CNN
F 1 "+3.3V" H 5665 4323 50  0000 C CNN
F 2 "" H 5650 4150 50  0001 C CNN
F 3 "" H 5650 4150 50  0001 C CNN
	1    5650 4150
	1    0    0    -1  
$EndComp
Wire Wire Line
	5600 4400 5650 4400
Wire Wire Line
	5650 4400 5650 4200
Wire Wire Line
	4700 4500 5100 4500
$Comp
L power:GND #PWR0111
U 1 1 5CADD5F9
P 5850 3400
F 0 "#PWR0111" H 5850 3150 50  0001 C CNN
F 1 "GND" H 5855 3227 50  0000 C CNN
F 2 "" H 5850 3400 50  0001 C CNN
F 3 "" H 5850 3400 50  0001 C CNN
	1    5850 3400
	1    0    0    -1  
$EndComp
Text Label 6100 3200 2    50   ~ 0
IO2
Text Notes 8000 2800 0    50   ~ 0
PWM output possible\non PA1-6 and PB2
$Comp
L Connector:Conn_01x06_Male J8
U 1 1 5CACEC87
P 5550 3100
F 0 "J8" H 5650 2650 50  0000 C CNN
F 1 "I/O" H 5650 3400 50  0000 C CNN
F 2 "Connector_PinHeader_2.54mm:PinHeader_2x03_P2.54mm_Horizontal" H 5550 3100 50  0001 C CNN
F 3 "~" H 5550 3100 50  0001 C CNN
	1    5550 3100
	1    0    0    1   
$EndComp
Text Label 7900 3950 2    50   ~ 0
ADC
Wire Wire Line
	6900 2550 6900 2650
Wire Wire Line
	6900 4450 6900 4550
$Comp
L power:+3.3V #PWR0112
U 1 1 5CAEEB62
P 5400 1800
F 0 "#PWR0112" H 5400 1650 50  0001 C CNN
F 1 "+3.3V" H 5415 1973 50  0000 C CNN
F 2 "" H 5400 1800 50  0001 C CNN
F 3 "" H 5400 1800 50  0001 C CNN
	1    5400 1800
	1    0    0    -1  
$EndComp
$Comp
L power:GND #PWR0113
U 1 1 5CAEEB89
P 5400 2200
F 0 "#PWR0113" H 5400 1950 50  0001 C CNN
F 1 "GND" H 5405 2027 50  0000 C CNN
F 2 "" H 5400 2200 50  0001 C CNN
F 3 "" H 5400 2200 50  0001 C CNN
	1    5400 2200
	1    0    0    -1  
$EndComp
Wire Wire Line
	5400 2150 5400 2200
Wire Wire Line
	5400 1800 5400 1850
Text Notes 8000 3050 0    50   ~ 0
TOCC0 -> OC2B
Text Notes 8000 3150 0    50   ~ 0
TOCC1 -> OC2A
Text Notes 8000 3250 0    50   ~ 0
TOCC2 -> OC1B
Text Notes 8000 4050 0    50   ~ 0
TOCC7 -> 0C1A
Text Label 7900 3850 2    50   ~ 0
IO2
Text Label 6100 3000 2    50   ~ 0
IO1
$Comp
L power:+3.3V #PWR0115
U 1 1 5CA587AD
P 5850 2700
F 0 "#PWR0115" H 5850 2550 50  0001 C CNN
F 1 "+3.3V" H 5865 2873 50  0000 C CNN
F 2 "" H 5850 2700 50  0001 C CNN
F 3 "" H 5850 2700 50  0001 C CNN
	1    5850 2700
	1    0    0    -1  
$EndComp
Wire Wire Line
	5750 3200 6100 3200
Wire Wire Line
	5750 3000 6100 3000
Wire Wire Line
	5750 2900 6100 2900
NoConn ~ 5550 900 
Text Notes 5700 4500 0    50   ~ 0
MOSI
Text Notes 4900 4500 0    50   ~ 0
SCK
Text Label 4700 4400 0    50   ~ 0
MISO
Text Label 4700 4600 0    50   ~ 0
RST
Text Label 4700 4500 0    50   ~ 0
SCL
Text Label 6100 4500 2    50   ~ 0
SDA
Wire Wire Line
	5600 4500 6100 4500
Text Label 7900 3450 2    50   ~ 0
MISO
Text Label 7900 4150 2    50   ~ 0
RST
Wire Wire Line
	7500 3050 7900 3050
Wire Wire Line
	7500 3150 7900 3150
Wire Wire Line
	7500 3250 7900 3250
Wire Wire Line
	7500 3350 7900 3350
Wire Wire Line
	7500 3450 7900 3450
Wire Wire Line
	7500 3550 7900 3550
Wire Wire Line
	7500 3850 7900 3850
Wire Wire Line
	7500 3950 7900 3950
Wire Wire Line
	7500 4050 7900 4050
Wire Wire Line
	7500 4150 7900 4150
Text Notes 8000 3350 0    50   ~ 0
SCK
Text Notes 8000 3550 0    50   ~ 0
MOSI
$Comp
L power:+6V #PWR0116
U 1 1 5CAD41D2
P 4900 1950
F 0 "#PWR0116" H 4900 1800 50  0001 C CNN
F 1 "+6V" H 4915 2123 50  0000 C CNN
F 2 "" H 4900 1950 50  0001 C CNN
F 3 "" H 4900 1950 50  0001 C CNN
	1    4900 1950
	1    0    0    -1  
$EndComp
$Comp
L power:PWR_FLAG #FLG0103
U 1 1 5CAD41F3
P 4900 2050
F 0 "#FLG0103" H 4900 2125 50  0001 C CNN
F 1 "PWR_FLAG" H 4900 2223 50  0000 C CNN
F 2 "" H 4900 2050 50  0001 C CNN
F 3 "~" H 4900 2050 50  0001 C CNN
	1    4900 2050
	-1   0    0    1   
$EndComp
Wire Wire Line
	4900 1950 4900 2050
Wire Wire Line
	7500 2950 7900 2950
Wire Wire Line
	7500 3650 7900 3650
Text Label 7900 3650 2    50   ~ 0
IO1
Text Label 7900 2950 2    50   ~ 0
IO0
Wire Wire Line
	5750 3300 5850 3300
Wire Wire Line
	5850 2700 5850 3100
Wire Wire Line
	5750 2800 6100 2800
Text Label 6100 2800 2    50   ~ 0
IO0
Wire Wire Line
	5850 3300 5850 3400
Wire Wire Line
	5750 3100 5850 3100
Text Label 6100 2900 2    50   ~ 0
ADC
Wire Wire Line
	4900 3200 5300 3200
Wire Wire Line
	4900 3000 5300 3000
Connection ~ 3650 2900
Wire Wire Line
	3950 2900 3650 2900
Wire Wire Line
	3950 2800 3750 2800
$Comp
L Connector_Generic:Conn_01x01 J5
U 1 1 5CAB22C5
P 4150 2900
F 0 "J5" H 4300 2900 50  0000 C CNN
F 1 "Servo power -" H 4150 2800 50  0000 C CNN
F 2 "Connector_Wire:SolderWirePad_1x01_SMD_5x10mm" H 4150 2900 50  0001 C CNN
F 3 "~" H 4150 2900 50  0001 C CNN
	1    4150 2900
	1    0    0    -1  
$EndComp
$Comp
L Connector_Generic:Conn_01x01 J4
U 1 1 5CAAD3ED
P 4150 2800
F 0 "J4" H 4300 2800 50  0000 C CNN
F 1 "Servo power +" H 4150 2900 50  0000 C CNN
F 2 "Connector_Wire:SolderWirePad_1x01_SMD_5x10mm" H 4150 2800 50  0001 C CNN
F 3 "~" H 4150 2800 50  0001 C CNN
	1    4150 2800
	1    0    0    -1  
$EndComp
Connection ~ 3650 3400
Wire Wire Line
	3650 2900 3650 3400
Connection ~ 3750 2800
Text Label 4050 4100 2    50   ~ 0
PWM0
Text Label 4050 3800 2    50   ~ 0
PWM1
Text Label 4050 3500 2    50   ~ 0
PWM2
Text Label 4050 3200 2    50   ~ 0
PWM3
Wire Wire Line
	3500 4100 4050 4100
Wire Wire Line
	3500 3800 4050 3800
Wire Wire Line
	3500 3500 4050 3500
Wire Wire Line
	3500 3200 4050 3200
Wire Wire Line
	3650 4300 3650 4400
Connection ~ 3650 4300
Wire Wire Line
	3500 4300 3650 4300
Wire Wire Line
	3650 4000 3650 4300
Connection ~ 3650 4000
Wire Wire Line
	3500 4000 3650 4000
Wire Wire Line
	3650 3700 3650 4000
Connection ~ 3650 3700
Wire Wire Line
	3500 3700 3650 3700
Wire Wire Line
	3650 3400 3650 3700
Wire Wire Line
	3500 3400 3650 3400
Wire Wire Line
	3750 3300 3750 3600
Connection ~ 3750 3300
Wire Wire Line
	3500 3300 3750 3300
Wire Wire Line
	3750 3600 3750 3900
Connection ~ 3750 3600
Wire Wire Line
	3500 3600 3750 3600
Wire Wire Line
	3750 3900 3750 4200
Connection ~ 3750 3900
Wire Wire Line
	3500 3900 3750 3900
Wire Wire Line
	3750 4200 3500 4200
Wire Wire Line
	3750 2800 3750 3300
$Comp
L power:GND #PWR0117
U 1 1 5CADE475
P 3650 4400
F 0 "#PWR0117" H 3650 4150 50  0001 C CNN
F 1 "GND" H 3655 4227 50  0000 C CNN
F 2 "" H 3650 4400 50  0001 C CNN
F 3 "" H 3650 4400 50  0001 C CNN
	1    3650 4400
	1    0    0    -1  
$EndComp
$Comp
L Connector:Conn_01x12_Male J3
U 1 1 5CADDC96
P 3300 3700
F 0 "J3" H 3400 4300 50  0000 C CNN
F 1 "Servo 0-3" H 3350 3050 50  0000 C CNN
F 2 "Connector_PinHeader:PinHeader_3x04_P2.54mm_Horizontal" H 3300 3700 50  0001 C CNN
F 3 "~" H 3300 3700 50  0001 C CNN
	1    3300 3700
	1    0    0    -1  
$EndComp
$Comp
L power:+6V #PWR0107
U 1 1 5C960C81
P 3750 2700
F 0 "#PWR0107" H 3750 2550 50  0001 C CNN
F 1 "+6V" H 3765 2873 50  0000 C CNN
F 2 "" H 3750 2700 50  0001 C CNN
F 3 "" H 3750 2700 50  0001 C CNN
	1    3750 2700
	1    0    0    -1  
$EndComp
Wire Wire Line
	3750 2700 3750 2800
$Comp
L Connector_Generic:Conn_01x01 J0
U 1 1 5C9DC4D1
P 3350 2800
F 0 "J0" H 3500 2800 50  0000 C CNN
F 1 "Servo power +" H 3350 2700 50  0000 C CNN
F 2 "Connector_Wire:SolderWirePad_1x01_SMD_5x10mm" H 3350 2800 50  0001 C CNN
F 3 "~" H 3350 2800 50  0001 C CNN
	1    3350 2800
	-1   0    0    1   
$EndComp
Wire Wire Line
	3550 2800 3750 2800
Wire Wire Line
	3550 2900 3650 2900
$Comp
L Connector_Generic:Conn_01x01 J1
U 1 1 5C94AF56
P 3350 2900
F 0 "J1" H 3500 2900 50  0000 C CNN
F 1 "Servo power -" H 3350 3000 50  0000 C CNN
F 2 "Connector_Wire:SolderWirePad_1x01_SMD_5x10mm" H 3350 2900 50  0001 C CNN
F 3 "~" H 3350 2900 50  0001 C CNN
	1    3350 2900
	-1   0    0    1   
$EndComp
$Comp
L Device:R R1
U 1 1 5CACC29C
P 4450 4400
F 0 "R1" H 4520 4446 50  0000 L CNN
F 1 "10k" H 4520 4355 50  0000 L CNN
F 2 "Resistor_SMD:R_1206_3216Metric_Pad1.42x1.75mm_HandSolder" V 4380 4400 50  0001 C CNN
F 3 "~" H 4450 4400 50  0001 C CNN
	1    4450 4400
	1    0    0    -1  
$EndComp
Wire Wire Line
	4450 4250 4450 4200
Wire Wire Line
	4450 4200 5650 4200
Connection ~ 5650 4200
Wire Wire Line
	5650 4200 5650 4150
Wire Wire Line
	4450 4600 4450 4550
Wire Wire Line
	4450 4600 5100 4600
Text Notes 8000 3450 0    50   ~ 0
MISO
Text Notes 8000 2950 0    50   ~ 0
IO0
Text Notes 8000 3650 0    50   ~ 0
IO1
Text Notes 8000 3850 0    50   ~ 0
IO2
Text Notes 8000 3950 0    50   ~ 0
ADC
Text Notes 8000 4150 0    50   ~ 0
IO2
$EndSCHEMATC
