(export (version D)
  (design
    (source /home/fma/kicad/Servo_Node/Servo_Node.sch)
    (date "ven. 05 avril 2019 08:38:37 CEST")
    (tool "Eeschema 5.0.2+dfsg1-1")
    (sheet (number 1) (name /) (tstamps /)
      (title_block
        (title)
        (company)
        (rev)
        (date)
        (source Servo_Node.sch)
        (comment (number 1) (value ""))
        (comment (number 2) (value ""))
        (comment (number 3) (value ""))
        (comment (number 4) (value "")))))
  (components
    (comp (ref J4)
      (value "Servo 0+1")
      (footprint Connector_PinHeader_2.54mm:PinHeader_2x03_P2.54mm_Horizontal)
      (datasheet ~)
      (libsource (lib Connector) (part Conn_01x06_Male) (description "Generic connector, single row, 01x06, script generated (kicad-library-utils/schlib/autogen/connector/)"))
      (sheetpath (names /) (tstamps /))
      (tstamp 5C94A8D0))
    (comp (ref J5)
      (value "Servo 2+3")
      (footprint Connector_PinHeader_2.54mm:PinHeader_2x03_P2.54mm_Horizontal)
      (datasheet ~)
      (libsource (lib Connector) (part Conn_01x06_Male) (description "Generic connector, single row, 01x06, script generated (kicad-library-utils/schlib/autogen/connector/)"))
      (sheetpath (names /) (tstamps /))
      (tstamp 5C94AAA6))
    (comp (ref J1)
      (value "Servo power -")
      (footprint Connector_Wire:SolderWirePad_1x01_SMD_5x10mm)
      (datasheet ~)
      (libsource (lib Connector_Generic) (part Conn_01x01) (description "Generic connector, single row, 01x01, script generated (kicad-library-utils/schlib/autogen/connector/)"))
      (sheetpath (names /) (tstamps /))
      (tstamp 5C94AF56))
    (comp (ref J2)
      (value I²C)
      (footprint Connector_PinHeader_2.54mm:PinHeader_2x04_P2.54mm_Horizontal)
      (datasheet ~)
      (libsource (lib Connector) (part Conn_01x08_Male) (description "Generic connector, single row, 01x08, script generated (kicad-library-utils/schlib/autogen/connector/)"))
      (sheetpath (names /) (tstamps /))
      (tstamp 5C94B006))
    (comp (ref J0)
      (value "Servo power +")
      (footprint Connector_Wire:SolderWirePad_1x01_SMD_5x10mm)
      (datasheet ~)
      (libsource (lib Connector_Generic) (part Conn_01x01) (description "Generic connector, single row, 01x01, script generated (kicad-library-utils/schlib/autogen/connector/)"))
      (sheetpath (names /) (tstamps /))
      (tstamp 5C9DC4D1))
    (comp (ref U1)
      (value ATtiny841-SSU)
      (footprint Package_SO:SOIC-14_3.9x8.7mm_P1.27mm)
      (datasheet http://ww1.microchip.com/downloads/en/DeviceDoc/Atmel-8495-8-bit-AVR-Microcontrollers-ATtiny441-ATtiny841_Datasheet.pdf)
      (libsource (lib MCU_Microchip_ATtiny) (part ATtiny841-SSU) (description "16MHz, 8kB Flash, 512B SRAM, 512B EEPROM, ADC, ACI, debugWIRE, SOIC-14"))
      (sheetpath (names /) (tstamps /))
      (tstamp 5C9A3AEB))
    (comp (ref C1)
      (value 0.1nF)
      (footprint Capacitor_SMD:C_1206_3216Metric_Pad1.42x1.75mm_HandSolder)
      (datasheet ~)
      (libsource (lib Device) (part C) (description "Unpolarized capacitor"))
      (sheetpath (names /) (tstamps /))
      (tstamp 5C9AF236))
    (comp (ref J6)
      (value ISP)
      (footprint Connector_PinHeader_2.54mm:PinHeader_2x03_P2.54mm_Vertical)
      (datasheet ~)
      (libsource (lib Connector_Generic) (part Conn_02x03_Odd_Even) (description "Generic connector, double row, 02x03, odd/even pin numbering scheme (row 1 odd numbers, row 2 even numbers), script generated (kicad-library-utils/schlib/autogen/connector/)"))
      (sheetpath (names /) (tstamps /))
      (tstamp 5C9DDA3C))
    (comp (ref J8)
      (value INPUT)
      (footprint Connector_PinHeader_2.54mm:PinHeader_2x02_P2.54mm_Horizontal)
      (datasheet ~)
      (libsource (lib Connector) (part Conn_01x04_Male) (description "Generic connector, single row, 01x04, script generated (kicad-library-utils/schlib/autogen/connector/)"))
      (sheetpath (names /) (tstamps /))
      (tstamp 5CACEC87))
    (comp (ref R1)
      (value 4k7)
      (footprint Resistor_SMD:R_1206_3216Metric_Pad1.42x1.75mm_HandSolder)
      (datasheet ~)
      (libsource (lib Device) (part R) (description Resistor))
      (sheetpath (names /) (tstamps /))
      (tstamp 5CA1F05C))
    (comp (ref R2)
      (value 4k7)
      (footprint Resistor_SMD:R_1206_3216Metric_Pad1.42x1.75mm_HandSolder)
      (datasheet ~)
      (libsource (lib Device) (part R) (description Resistor))
      (sheetpath (names /) (tstamps /))
      (tstamp 5CA1F0A6)))
  (libparts
    (libpart (lib Connector) (part Conn_01x04_Male)
      (description "Generic connector, single row, 01x04, script generated (kicad-library-utils/schlib/autogen/connector/)")
      (docs ~)
      (footprints
        (fp Connector*:*_1x??_*))
      (fields
        (field (name Reference) J)
        (field (name Value) Conn_01x04_Male))
      (pins
        (pin (num 1) (name Pin_1) (type passive))
        (pin (num 2) (name Pin_2) (type passive))
        (pin (num 3) (name Pin_3) (type passive))
        (pin (num 4) (name Pin_4) (type passive))))
    (libpart (lib Connector) (part Conn_01x06_Male)
      (description "Generic connector, single row, 01x06, script generated (kicad-library-utils/schlib/autogen/connector/)")
      (docs ~)
      (footprints
        (fp Connector*:*_1x??_*))
      (fields
        (field (name Reference) J)
        (field (name Value) Conn_01x06_Male))
      (pins
        (pin (num 1) (name Pin_1) (type passive))
        (pin (num 2) (name Pin_2) (type passive))
        (pin (num 3) (name Pin_3) (type passive))
        (pin (num 4) (name Pin_4) (type passive))
        (pin (num 5) (name Pin_5) (type passive))
        (pin (num 6) (name Pin_6) (type passive))))
    (libpart (lib Connector) (part Conn_01x08_Male)
      (description "Generic connector, single row, 01x08, script generated (kicad-library-utils/schlib/autogen/connector/)")
      (docs ~)
      (footprints
        (fp Connector*:*_1x??_*))
      (fields
        (field (name Reference) J)
        (field (name Value) Conn_01x08_Male))
      (pins
        (pin (num 1) (name Pin_1) (type passive))
        (pin (num 2) (name Pin_2) (type passive))
        (pin (num 3) (name Pin_3) (type passive))
        (pin (num 4) (name Pin_4) (type passive))
        (pin (num 5) (name Pin_5) (type passive))
        (pin (num 6) (name Pin_6) (type passive))
        (pin (num 7) (name Pin_7) (type passive))
        (pin (num 8) (name Pin_8) (type passive))))
    (libpart (lib Connector_Generic) (part Conn_01x01)
      (description "Generic connector, single row, 01x01, script generated (kicad-library-utils/schlib/autogen/connector/)")
      (docs ~)
      (footprints
        (fp Connector*:*))
      (fields
        (field (name Reference) J)
        (field (name Value) Conn_01x01))
      (pins
        (pin (num 1) (name Pin_1) (type passive))))
    (libpart (lib Connector_Generic) (part Conn_02x03_Odd_Even)
      (description "Generic connector, double row, 02x03, odd/even pin numbering scheme (row 1 odd numbers, row 2 even numbers), script generated (kicad-library-utils/schlib/autogen/connector/)")
      (docs ~)
      (footprints
        (fp Connector*:*_2x??_*))
      (fields
        (field (name Reference) J)
        (field (name Value) Conn_02x03_Odd_Even))
      (pins
        (pin (num 1) (name Pin_1) (type passive))
        (pin (num 2) (name Pin_2) (type passive))
        (pin (num 3) (name Pin_3) (type passive))
        (pin (num 4) (name Pin_4) (type passive))
        (pin (num 5) (name Pin_5) (type passive))
        (pin (num 6) (name Pin_6) (type passive))))
    (libpart (lib Device) (part C)
      (description "Unpolarized capacitor")
      (docs ~)
      (footprints
        (fp C_*))
      (fields
        (field (name Reference) C)
        (field (name Value) C))
      (pins
        (pin (num 1) (name ~) (type passive))
        (pin (num 2) (name ~) (type passive))))
    (libpart (lib Device) (part R)
      (description Resistor)
      (docs ~)
      (footprints
        (fp R_*))
      (fields
        (field (name Reference) R)
        (field (name Value) R))
      (pins
        (pin (num 1) (name ~) (type passive))
        (pin (num 2) (name ~) (type passive))))
    (libpart (lib MCU_Microchip_ATtiny) (part ATtiny441-SSU)
      (aliases
        (alias ATtiny841-SSU))
      (description "16MHz, 4kB Flash, 256B SRAM, 256B EEPROM, ADC, ACI, debugWIRE, SOIC-14")
      (docs http://ww1.microchip.com/downloads/en/DeviceDoc/Atmel-8495-8-bit-AVR-Microcontrollers-ATtiny441-ATtiny841_Datasheet.pdf)
      (footprints
        (fp SOIC*3.9x8.7mm*P1.27mm*))
      (fields
        (field (name Reference) U)
        (field (name Value) ATtiny441-SSU)
        (field (name Footprint) Package_SO:SOIC-14_3.9x8.7mm_P1.27mm))
      (pins
        (pin (num 1) (name VCC) (type power_in))
        (pin (num 2) (name XTAL1/PB0) (type 3state))
        (pin (num 3) (name XTAL2/PB1) (type 3state))
        (pin (num 4) (name ~RESET~/PB3) (type 3state))
        (pin (num 5) (name PB2) (type 3state))
        (pin (num 6) (name PA7) (type 3state))
        (pin (num 7) (name PA6) (type 3state))
        (pin (num 8) (name PA5) (type 3state))
        (pin (num 9) (name PA4) (type 3state))
        (pin (num 10) (name PA3) (type 3state))
        (pin (num 11) (name PA2) (type 3state))
        (pin (num 12) (name PA1) (type 3state))
        (pin (num 13) (name AREF/PA0) (type 3state))
        (pin (num 14) (name GND) (type power_in)))))
  (libraries
    (library (logical Connector)
      (uri /usr/share/kicad/library/Connector.lib))
    (library (logical Connector_Generic)
      (uri /usr/share/kicad/library/Connector_Generic.lib))
    (library (logical Device)
      (uri /usr/share/kicad/library/Device.lib))
    (library (logical MCU_Microchip_ATtiny)
      (uri /home/fma/kicad/modules/MCU_Microchip_ATtiny.lib)))
  (nets
    (net (code 1) (name GND)
      (node (ref U1) (pin 14))
      (node (ref J1) (pin 1))
      (node (ref J5) (pin 6))
      (node (ref C1) (pin 2))
      (node (ref J5) (pin 5))
      (node (ref J4) (pin 6))
      (node (ref J4) (pin 5))
      (node (ref J6) (pin 6))
      (node (ref J8) (pin 2))
      (node (ref J2) (pin 1))
      (node (ref J2) (pin 2)))
    (net (code 2) (name +3V3)
      (node (ref R2) (pin 2))
      (node (ref R1) (pin 2))
      (node (ref U1) (pin 1))
      (node (ref J2) (pin 8))
      (node (ref J2) (pin 7))
      (node (ref J8) (pin 4))
      (node (ref J6) (pin 2))
      (node (ref C1) (pin 1)))
    (net (code 3) (name /SCL)
      (node (ref J2) (pin 3))
      (node (ref R1) (pin 1))
      (node (ref J2) (pin 4))
      (node (ref U1) (pin 9))
      (node (ref J6) (pin 3)))
    (net (code 4) (name /IN)
      (node (ref J8) (pin 1))
      (node (ref U1) (pin 2)))
    (net (code 5) (name "Net-(U1-Pad13)")
      (node (ref U1) (pin 13)))
    (net (code 6) (name /ADC)
      (node (ref U1) (pin 3))
      (node (ref J8) (pin 3)))
    (net (code 7) (name "Net-(U1-Pad6)")
      (node (ref U1) (pin 6)))
    (net (code 8) (name /MISO)
      (node (ref U1) (pin 8))
      (node (ref J6) (pin 1)))
    (net (code 9) (name /SDA)
      (node (ref J2) (pin 6))
      (node (ref U1) (pin 7))
      (node (ref J2) (pin 5))
      (node (ref J6) (pin 4))
      (node (ref R2) (pin 1)))
    (net (code 10) (name /RST)
      (node (ref U1) (pin 4))
      (node (ref J6) (pin 5)))
    (net (code 12) (name /PWM1)
      (node (ref U1) (pin 10))
      (node (ref J4) (pin 2)))
    (net (code 13) (name /PWM3)
      (node (ref J5) (pin 2))
      (node (ref U1) (pin 12)))
    (net (code 14) (name /PWM2)
      (node (ref U1) (pin 11))
      (node (ref J5) (pin 1)))
    (net (code 15) (name /PWM0)
      (node (ref U1) (pin 5))
      (node (ref J4) (pin 1)))
    (net (code 16) (name +6V)
      (node (ref J0) (pin 1))
      (node (ref J4) (pin 3))
      (node (ref J4) (pin 4))
      (node (ref J5) (pin 3))
      (node (ref J5) (pin 4)))))