G04 #@! TF.GenerationSoftware,KiCad,Pcbnew,5.1.0+dfsg1-1*
G04 #@! TF.CreationDate,2019-05-09T12:54:33+02:00*
G04 #@! TF.ProjectId,Servo_Node,53657276-6f5f-44e6-9f64-652e6b696361,0.9*
G04 #@! TF.SameCoordinates,Original*
G04 #@! TF.FileFunction,Soldermask,Bot*
G04 #@! TF.FilePolarity,Negative*
%FSLAX46Y46*%
G04 Gerber Fmt 4.6, Leading zero omitted, Abs format (unit mm)*
G04 Created by KiCad (PCBNEW 5.1.0+dfsg1-1) date 2019-05-09 12:54:33*
%MOMM*%
%LPD*%
G04 APERTURE LIST*
%ADD10C,3.200000*%
%ADD11C,1.800000*%
%ADD12C,0.100000*%
G04 APERTURE END LIST*
D10*
X107188000Y-106426000D02*
X107188000Y-111760000D01*
D11*
X113030000Y-112014000D02*
X107188000Y-112014000D01*
X114808000Y-113792000D02*
X113030000Y-112014000D01*
X127508000Y-113792000D02*
X114808000Y-113792000D01*
X128524000Y-112776000D02*
X127508000Y-113792000D01*
X128524000Y-103124000D02*
X128524000Y-112776000D01*
D12*
G36*
X111262525Y-109486900D02*
G01*
X111489966Y-109555894D01*
X111699570Y-109667929D01*
X111883293Y-109818707D01*
X112034071Y-110002430D01*
X112146106Y-110212034D01*
X112215100Y-110439475D01*
X112239000Y-110682140D01*
X112239000Y-113345860D01*
X112215100Y-113588525D01*
X112146106Y-113815966D01*
X112034071Y-114025570D01*
X111883293Y-114209293D01*
X111699570Y-114360071D01*
X111489966Y-114472106D01*
X111262525Y-114541100D01*
X111019860Y-114565000D01*
X103356140Y-114565000D01*
X103113475Y-114541100D01*
X102886034Y-114472106D01*
X102676430Y-114360071D01*
X102492707Y-114209293D01*
X102341929Y-114025570D01*
X102229894Y-113815966D01*
X102160900Y-113588525D01*
X102137000Y-113345860D01*
X102137000Y-110682140D01*
X102160900Y-110439475D01*
X102229894Y-110212034D01*
X102341929Y-110002430D01*
X102492707Y-109818707D01*
X102676430Y-109667929D01*
X102886034Y-109555894D01*
X103113475Y-109486900D01*
X103356140Y-109463000D01*
X111019860Y-109463000D01*
X111262525Y-109486900D01*
X111262525Y-109486900D01*
G37*
G36*
X128634443Y-109849519D02*
G01*
X128700627Y-109856037D01*
X128870466Y-109907557D01*
X129026991Y-109991222D01*
X129062729Y-110020552D01*
X129164186Y-110103814D01*
X129247448Y-110205271D01*
X129276778Y-110241009D01*
X129360443Y-110397534D01*
X129411963Y-110567373D01*
X129429359Y-110744000D01*
X129411963Y-110920627D01*
X129360443Y-111090466D01*
X129276778Y-111246991D01*
X129247448Y-111282729D01*
X129164186Y-111384186D01*
X129062729Y-111467448D01*
X129026991Y-111496778D01*
X128870466Y-111580443D01*
X128700627Y-111631963D01*
X128634443Y-111638481D01*
X128568260Y-111645000D01*
X128479740Y-111645000D01*
X128413557Y-111638481D01*
X128347373Y-111631963D01*
X128177534Y-111580443D01*
X128021009Y-111496778D01*
X127985271Y-111467448D01*
X127883814Y-111384186D01*
X127800552Y-111282729D01*
X127771222Y-111246991D01*
X127687557Y-111090466D01*
X127636037Y-110920627D01*
X127618641Y-110744000D01*
X127636037Y-110567373D01*
X127687557Y-110397534D01*
X127771222Y-110241009D01*
X127800552Y-110205271D01*
X127883814Y-110103814D01*
X127985271Y-110020552D01*
X128021009Y-109991222D01*
X128177534Y-109907557D01*
X128347373Y-109856037D01*
X128413557Y-109849519D01*
X128479740Y-109843000D01*
X128568260Y-109843000D01*
X128634443Y-109849519D01*
X128634443Y-109849519D01*
G37*
G36*
X123554443Y-109849519D02*
G01*
X123620627Y-109856037D01*
X123790466Y-109907557D01*
X123946991Y-109991222D01*
X123982729Y-110020552D01*
X124084186Y-110103814D01*
X124167448Y-110205271D01*
X124196778Y-110241009D01*
X124280443Y-110397534D01*
X124331963Y-110567373D01*
X124349359Y-110744000D01*
X124331963Y-110920627D01*
X124280443Y-111090466D01*
X124196778Y-111246991D01*
X124167448Y-111282729D01*
X124084186Y-111384186D01*
X123982729Y-111467448D01*
X123946991Y-111496778D01*
X123790466Y-111580443D01*
X123620627Y-111631963D01*
X123554443Y-111638481D01*
X123488260Y-111645000D01*
X123399740Y-111645000D01*
X123333557Y-111638481D01*
X123267373Y-111631963D01*
X123097534Y-111580443D01*
X122941009Y-111496778D01*
X122905271Y-111467448D01*
X122803814Y-111384186D01*
X122720552Y-111282729D01*
X122691222Y-111246991D01*
X122607557Y-111090466D01*
X122556037Y-110920627D01*
X122538641Y-110744000D01*
X122556037Y-110567373D01*
X122607557Y-110397534D01*
X122691222Y-110241009D01*
X122720552Y-110205271D01*
X122803814Y-110103814D01*
X122905271Y-110020552D01*
X122941009Y-109991222D01*
X123097534Y-109907557D01*
X123267373Y-109856037D01*
X123333557Y-109849519D01*
X123399740Y-109843000D01*
X123488260Y-109843000D01*
X123554443Y-109849519D01*
X123554443Y-109849519D01*
G37*
G36*
X126094443Y-109849519D02*
G01*
X126160627Y-109856037D01*
X126330466Y-109907557D01*
X126486991Y-109991222D01*
X126522729Y-110020552D01*
X126624186Y-110103814D01*
X126707448Y-110205271D01*
X126736778Y-110241009D01*
X126820443Y-110397534D01*
X126871963Y-110567373D01*
X126889359Y-110744000D01*
X126871963Y-110920627D01*
X126820443Y-111090466D01*
X126736778Y-111246991D01*
X126707448Y-111282729D01*
X126624186Y-111384186D01*
X126522729Y-111467448D01*
X126486991Y-111496778D01*
X126330466Y-111580443D01*
X126160627Y-111631963D01*
X126094443Y-111638481D01*
X126028260Y-111645000D01*
X125939740Y-111645000D01*
X125873557Y-111638481D01*
X125807373Y-111631963D01*
X125637534Y-111580443D01*
X125481009Y-111496778D01*
X125445271Y-111467448D01*
X125343814Y-111384186D01*
X125260552Y-111282729D01*
X125231222Y-111246991D01*
X125147557Y-111090466D01*
X125096037Y-110920627D01*
X125078641Y-110744000D01*
X125096037Y-110567373D01*
X125147557Y-110397534D01*
X125231222Y-110241009D01*
X125260552Y-110205271D01*
X125343814Y-110103814D01*
X125445271Y-110020552D01*
X125481009Y-109991222D01*
X125637534Y-109907557D01*
X125807373Y-109856037D01*
X125873557Y-109849519D01*
X125939740Y-109843000D01*
X126028260Y-109843000D01*
X126094443Y-109849519D01*
X126094443Y-109849519D01*
G37*
G36*
X128634442Y-107309518D02*
G01*
X128700627Y-107316037D01*
X128870466Y-107367557D01*
X129026991Y-107451222D01*
X129062729Y-107480552D01*
X129164186Y-107563814D01*
X129247448Y-107665271D01*
X129276778Y-107701009D01*
X129360443Y-107857534D01*
X129411963Y-108027373D01*
X129429359Y-108204000D01*
X129411963Y-108380627D01*
X129360443Y-108550466D01*
X129276778Y-108706991D01*
X129247448Y-108742729D01*
X129164186Y-108844186D01*
X129062729Y-108927448D01*
X129026991Y-108956778D01*
X128870466Y-109040443D01*
X128700627Y-109091963D01*
X128634443Y-109098481D01*
X128568260Y-109105000D01*
X128479740Y-109105000D01*
X128413557Y-109098481D01*
X128347373Y-109091963D01*
X128177534Y-109040443D01*
X128021009Y-108956778D01*
X127985271Y-108927448D01*
X127883814Y-108844186D01*
X127800552Y-108742729D01*
X127771222Y-108706991D01*
X127687557Y-108550466D01*
X127636037Y-108380627D01*
X127618641Y-108204000D01*
X127636037Y-108027373D01*
X127687557Y-107857534D01*
X127771222Y-107701009D01*
X127800552Y-107665271D01*
X127883814Y-107563814D01*
X127985271Y-107480552D01*
X128021009Y-107451222D01*
X128177534Y-107367557D01*
X128347373Y-107316037D01*
X128413558Y-107309518D01*
X128479740Y-107303000D01*
X128568260Y-107303000D01*
X128634442Y-107309518D01*
X128634442Y-107309518D01*
G37*
G36*
X126094442Y-107309518D02*
G01*
X126160627Y-107316037D01*
X126330466Y-107367557D01*
X126486991Y-107451222D01*
X126522729Y-107480552D01*
X126624186Y-107563814D01*
X126707448Y-107665271D01*
X126736778Y-107701009D01*
X126820443Y-107857534D01*
X126871963Y-108027373D01*
X126889359Y-108204000D01*
X126871963Y-108380627D01*
X126820443Y-108550466D01*
X126736778Y-108706991D01*
X126707448Y-108742729D01*
X126624186Y-108844186D01*
X126522729Y-108927448D01*
X126486991Y-108956778D01*
X126330466Y-109040443D01*
X126160627Y-109091963D01*
X126094443Y-109098481D01*
X126028260Y-109105000D01*
X125939740Y-109105000D01*
X125873557Y-109098481D01*
X125807373Y-109091963D01*
X125637534Y-109040443D01*
X125481009Y-108956778D01*
X125445271Y-108927448D01*
X125343814Y-108844186D01*
X125260552Y-108742729D01*
X125231222Y-108706991D01*
X125147557Y-108550466D01*
X125096037Y-108380627D01*
X125078641Y-108204000D01*
X125096037Y-108027373D01*
X125147557Y-107857534D01*
X125231222Y-107701009D01*
X125260552Y-107665271D01*
X125343814Y-107563814D01*
X125445271Y-107480552D01*
X125481009Y-107451222D01*
X125637534Y-107367557D01*
X125807373Y-107316037D01*
X125873558Y-107309518D01*
X125939740Y-107303000D01*
X126028260Y-107303000D01*
X126094442Y-107309518D01*
X126094442Y-107309518D01*
G37*
G36*
X123554442Y-107309518D02*
G01*
X123620627Y-107316037D01*
X123790466Y-107367557D01*
X123946991Y-107451222D01*
X123982729Y-107480552D01*
X124084186Y-107563814D01*
X124167448Y-107665271D01*
X124196778Y-107701009D01*
X124280443Y-107857534D01*
X124331963Y-108027373D01*
X124349359Y-108204000D01*
X124331963Y-108380627D01*
X124280443Y-108550466D01*
X124196778Y-108706991D01*
X124167448Y-108742729D01*
X124084186Y-108844186D01*
X123982729Y-108927448D01*
X123946991Y-108956778D01*
X123790466Y-109040443D01*
X123620627Y-109091963D01*
X123554443Y-109098481D01*
X123488260Y-109105000D01*
X123399740Y-109105000D01*
X123333557Y-109098481D01*
X123267373Y-109091963D01*
X123097534Y-109040443D01*
X122941009Y-108956778D01*
X122905271Y-108927448D01*
X122803814Y-108844186D01*
X122720552Y-108742729D01*
X122691222Y-108706991D01*
X122607557Y-108550466D01*
X122556037Y-108380627D01*
X122538641Y-108204000D01*
X122556037Y-108027373D01*
X122607557Y-107857534D01*
X122691222Y-107701009D01*
X122720552Y-107665271D01*
X122803814Y-107563814D01*
X122905271Y-107480552D01*
X122941009Y-107451222D01*
X123097534Y-107367557D01*
X123267373Y-107316037D01*
X123333558Y-107309518D01*
X123399740Y-107303000D01*
X123488260Y-107303000D01*
X123554442Y-107309518D01*
X123554442Y-107309518D01*
G37*
G36*
X111262525Y-103898900D02*
G01*
X111489966Y-103967894D01*
X111699570Y-104079929D01*
X111883293Y-104230707D01*
X112034071Y-104414430D01*
X112146106Y-104624034D01*
X112215100Y-104851475D01*
X112239000Y-105094140D01*
X112239000Y-107757860D01*
X112215100Y-108000525D01*
X112146106Y-108227966D01*
X112034071Y-108437570D01*
X111883293Y-108621293D01*
X111699570Y-108772071D01*
X111489966Y-108884106D01*
X111262525Y-108953100D01*
X111019860Y-108977000D01*
X103356140Y-108977000D01*
X103113475Y-108953100D01*
X102886034Y-108884106D01*
X102676430Y-108772071D01*
X102492707Y-108621293D01*
X102341929Y-108437570D01*
X102229894Y-108227966D01*
X102160900Y-108000525D01*
X102137000Y-107757860D01*
X102137000Y-105094140D01*
X102160900Y-104851475D01*
X102229894Y-104624034D01*
X102341929Y-104414430D01*
X102492707Y-104230707D01*
X102676430Y-104079929D01*
X102886034Y-103967894D01*
X103113475Y-103898900D01*
X103356140Y-103875000D01*
X111019860Y-103875000D01*
X111262525Y-103898900D01*
X111262525Y-103898900D01*
G37*
G36*
X128634442Y-104769518D02*
G01*
X128700627Y-104776037D01*
X128870466Y-104827557D01*
X129026991Y-104911222D01*
X129062729Y-104940552D01*
X129164186Y-105023814D01*
X129221900Y-105094140D01*
X129276778Y-105161009D01*
X129360443Y-105317534D01*
X129411963Y-105487373D01*
X129429359Y-105664000D01*
X129411963Y-105840627D01*
X129360443Y-106010466D01*
X129276778Y-106166991D01*
X129247448Y-106202729D01*
X129164186Y-106304186D01*
X129062729Y-106387448D01*
X129026991Y-106416778D01*
X128870466Y-106500443D01*
X128700627Y-106551963D01*
X128634442Y-106558482D01*
X128568260Y-106565000D01*
X128479740Y-106565000D01*
X128413558Y-106558482D01*
X128347373Y-106551963D01*
X128177534Y-106500443D01*
X128021009Y-106416778D01*
X127985271Y-106387448D01*
X127883814Y-106304186D01*
X127800552Y-106202729D01*
X127771222Y-106166991D01*
X127687557Y-106010466D01*
X127636037Y-105840627D01*
X127618641Y-105664000D01*
X127636037Y-105487373D01*
X127687557Y-105317534D01*
X127771222Y-105161009D01*
X127826100Y-105094140D01*
X127883814Y-105023814D01*
X127985271Y-104940552D01*
X128021009Y-104911222D01*
X128177534Y-104827557D01*
X128347373Y-104776037D01*
X128413558Y-104769518D01*
X128479740Y-104763000D01*
X128568260Y-104763000D01*
X128634442Y-104769518D01*
X128634442Y-104769518D01*
G37*
G36*
X123554442Y-104769518D02*
G01*
X123620627Y-104776037D01*
X123790466Y-104827557D01*
X123946991Y-104911222D01*
X123982729Y-104940552D01*
X124084186Y-105023814D01*
X124141900Y-105094140D01*
X124196778Y-105161009D01*
X124280443Y-105317534D01*
X124331963Y-105487373D01*
X124349359Y-105664000D01*
X124331963Y-105840627D01*
X124280443Y-106010466D01*
X124196778Y-106166991D01*
X124167448Y-106202729D01*
X124084186Y-106304186D01*
X123982729Y-106387448D01*
X123946991Y-106416778D01*
X123790466Y-106500443D01*
X123620627Y-106551963D01*
X123554442Y-106558482D01*
X123488260Y-106565000D01*
X123399740Y-106565000D01*
X123333558Y-106558482D01*
X123267373Y-106551963D01*
X123097534Y-106500443D01*
X122941009Y-106416778D01*
X122905271Y-106387448D01*
X122803814Y-106304186D01*
X122720552Y-106202729D01*
X122691222Y-106166991D01*
X122607557Y-106010466D01*
X122556037Y-105840627D01*
X122538641Y-105664000D01*
X122556037Y-105487373D01*
X122607557Y-105317534D01*
X122691222Y-105161009D01*
X122746100Y-105094140D01*
X122803814Y-105023814D01*
X122905271Y-104940552D01*
X122941009Y-104911222D01*
X123097534Y-104827557D01*
X123267373Y-104776037D01*
X123333558Y-104769518D01*
X123399740Y-104763000D01*
X123488260Y-104763000D01*
X123554442Y-104769518D01*
X123554442Y-104769518D01*
G37*
G36*
X126094442Y-104769518D02*
G01*
X126160627Y-104776037D01*
X126330466Y-104827557D01*
X126486991Y-104911222D01*
X126522729Y-104940552D01*
X126624186Y-105023814D01*
X126681900Y-105094140D01*
X126736778Y-105161009D01*
X126820443Y-105317534D01*
X126871963Y-105487373D01*
X126889359Y-105664000D01*
X126871963Y-105840627D01*
X126820443Y-106010466D01*
X126736778Y-106166991D01*
X126707448Y-106202729D01*
X126624186Y-106304186D01*
X126522729Y-106387448D01*
X126486991Y-106416778D01*
X126330466Y-106500443D01*
X126160627Y-106551963D01*
X126094442Y-106558482D01*
X126028260Y-106565000D01*
X125939740Y-106565000D01*
X125873558Y-106558482D01*
X125807373Y-106551963D01*
X125637534Y-106500443D01*
X125481009Y-106416778D01*
X125445271Y-106387448D01*
X125343814Y-106304186D01*
X125260552Y-106202729D01*
X125231222Y-106166991D01*
X125147557Y-106010466D01*
X125096037Y-105840627D01*
X125078641Y-105664000D01*
X125096037Y-105487373D01*
X125147557Y-105317534D01*
X125231222Y-105161009D01*
X125286100Y-105094140D01*
X125343814Y-105023814D01*
X125445271Y-104940552D01*
X125481009Y-104911222D01*
X125637534Y-104827557D01*
X125807373Y-104776037D01*
X125873558Y-104769518D01*
X125939740Y-104763000D01*
X126028260Y-104763000D01*
X126094442Y-104769518D01*
X126094442Y-104769518D01*
G37*
G36*
X124345000Y-104025000D02*
G01*
X122543000Y-104025000D01*
X122543000Y-102223000D01*
X124345000Y-102223000D01*
X124345000Y-104025000D01*
X124345000Y-104025000D01*
G37*
G36*
X126094443Y-102229519D02*
G01*
X126160627Y-102236037D01*
X126330466Y-102287557D01*
X126486991Y-102371222D01*
X126522729Y-102400552D01*
X126624186Y-102483814D01*
X126707448Y-102585271D01*
X126736778Y-102621009D01*
X126820443Y-102777534D01*
X126871963Y-102947373D01*
X126889359Y-103124000D01*
X126871963Y-103300627D01*
X126820443Y-103470466D01*
X126736778Y-103626991D01*
X126707448Y-103662729D01*
X126624186Y-103764186D01*
X126522729Y-103847448D01*
X126486991Y-103876778D01*
X126330466Y-103960443D01*
X126160627Y-104011963D01*
X126094443Y-104018481D01*
X126028260Y-104025000D01*
X125939740Y-104025000D01*
X125873557Y-104018481D01*
X125807373Y-104011963D01*
X125637534Y-103960443D01*
X125481009Y-103876778D01*
X125445271Y-103847448D01*
X125343814Y-103764186D01*
X125260552Y-103662729D01*
X125231222Y-103626991D01*
X125147557Y-103470466D01*
X125096037Y-103300627D01*
X125078641Y-103124000D01*
X125096037Y-102947373D01*
X125147557Y-102777534D01*
X125231222Y-102621009D01*
X125260552Y-102585271D01*
X125343814Y-102483814D01*
X125445271Y-102400552D01*
X125481009Y-102371222D01*
X125637534Y-102287557D01*
X125807373Y-102236037D01*
X125873557Y-102229519D01*
X125939740Y-102223000D01*
X126028260Y-102223000D01*
X126094443Y-102229519D01*
X126094443Y-102229519D01*
G37*
G36*
X128634443Y-102229519D02*
G01*
X128700627Y-102236037D01*
X128870466Y-102287557D01*
X129026991Y-102371222D01*
X129062729Y-102400552D01*
X129164186Y-102483814D01*
X129247448Y-102585271D01*
X129276778Y-102621009D01*
X129360443Y-102777534D01*
X129411963Y-102947373D01*
X129429359Y-103124000D01*
X129411963Y-103300627D01*
X129360443Y-103470466D01*
X129276778Y-103626991D01*
X129247448Y-103662729D01*
X129164186Y-103764186D01*
X129062729Y-103847448D01*
X129026991Y-103876778D01*
X128870466Y-103960443D01*
X128700627Y-104011963D01*
X128634443Y-104018481D01*
X128568260Y-104025000D01*
X128479740Y-104025000D01*
X128413557Y-104018481D01*
X128347373Y-104011963D01*
X128177534Y-103960443D01*
X128021009Y-103876778D01*
X127985271Y-103847448D01*
X127883814Y-103764186D01*
X127800552Y-103662729D01*
X127771222Y-103626991D01*
X127687557Y-103470466D01*
X127636037Y-103300627D01*
X127618641Y-103124000D01*
X127636037Y-102947373D01*
X127687557Y-102777534D01*
X127771222Y-102621009D01*
X127800552Y-102585271D01*
X127883814Y-102483814D01*
X127985271Y-102400552D01*
X128021009Y-102371222D01*
X128177534Y-102287557D01*
X128347373Y-102236037D01*
X128413557Y-102229519D01*
X128479740Y-102223000D01*
X128568260Y-102223000D01*
X128634443Y-102229519D01*
X128634443Y-102229519D01*
G37*
G36*
X106282442Y-100197518D02*
G01*
X106348627Y-100204037D01*
X106518466Y-100255557D01*
X106674991Y-100339222D01*
X106710729Y-100368552D01*
X106812186Y-100451814D01*
X106895448Y-100553271D01*
X106924778Y-100589009D01*
X107008443Y-100745534D01*
X107059963Y-100915373D01*
X107077359Y-101092000D01*
X107059963Y-101268627D01*
X107008443Y-101438466D01*
X106924778Y-101594991D01*
X106895448Y-101630729D01*
X106812186Y-101732186D01*
X106710729Y-101815448D01*
X106674991Y-101844778D01*
X106518466Y-101928443D01*
X106348627Y-101979963D01*
X106282442Y-101986482D01*
X106216260Y-101993000D01*
X106127740Y-101993000D01*
X106061558Y-101986482D01*
X105995373Y-101979963D01*
X105825534Y-101928443D01*
X105669009Y-101844778D01*
X105633271Y-101815448D01*
X105531814Y-101732186D01*
X105448552Y-101630729D01*
X105419222Y-101594991D01*
X105335557Y-101438466D01*
X105284037Y-101268627D01*
X105266641Y-101092000D01*
X105284037Y-100915373D01*
X105335557Y-100745534D01*
X105419222Y-100589009D01*
X105448552Y-100553271D01*
X105531814Y-100451814D01*
X105633271Y-100368552D01*
X105669009Y-100339222D01*
X105825534Y-100255557D01*
X105995373Y-100204037D01*
X106061558Y-100197518D01*
X106127740Y-100191000D01*
X106216260Y-100191000D01*
X106282442Y-100197518D01*
X106282442Y-100197518D01*
G37*
G36*
X109613000Y-101993000D02*
G01*
X107811000Y-101993000D01*
X107811000Y-100191000D01*
X109613000Y-100191000D01*
X109613000Y-101993000D01*
X109613000Y-101993000D01*
G37*
G36*
X128634443Y-97657519D02*
G01*
X128700627Y-97664037D01*
X128870466Y-97715557D01*
X129026991Y-97799222D01*
X129062729Y-97828552D01*
X129164186Y-97911814D01*
X129247448Y-98013271D01*
X129276778Y-98049009D01*
X129360443Y-98205534D01*
X129411963Y-98375373D01*
X129429359Y-98552000D01*
X129411963Y-98728627D01*
X129360443Y-98898466D01*
X129276778Y-99054991D01*
X129247448Y-99090729D01*
X129164186Y-99192186D01*
X129062729Y-99275448D01*
X129026991Y-99304778D01*
X128870466Y-99388443D01*
X128700627Y-99439963D01*
X128634443Y-99446481D01*
X128568260Y-99453000D01*
X128479740Y-99453000D01*
X128413557Y-99446481D01*
X128347373Y-99439963D01*
X128177534Y-99388443D01*
X128021009Y-99304778D01*
X127985271Y-99275448D01*
X127883814Y-99192186D01*
X127800552Y-99090729D01*
X127771222Y-99054991D01*
X127687557Y-98898466D01*
X127636037Y-98728627D01*
X127618641Y-98552000D01*
X127636037Y-98375373D01*
X127687557Y-98205534D01*
X127771222Y-98049009D01*
X127800552Y-98013271D01*
X127883814Y-97911814D01*
X127985271Y-97828552D01*
X128021009Y-97799222D01*
X128177534Y-97715557D01*
X128347373Y-97664037D01*
X128413557Y-97657519D01*
X128479740Y-97651000D01*
X128568260Y-97651000D01*
X128634443Y-97657519D01*
X128634443Y-97657519D01*
G37*
G36*
X108822443Y-97657519D02*
G01*
X108888627Y-97664037D01*
X109058466Y-97715557D01*
X109214991Y-97799222D01*
X109250729Y-97828552D01*
X109352186Y-97911814D01*
X109435448Y-98013271D01*
X109464778Y-98049009D01*
X109548443Y-98205534D01*
X109599963Y-98375373D01*
X109617359Y-98552000D01*
X109599963Y-98728627D01*
X109548443Y-98898466D01*
X109464778Y-99054991D01*
X109435448Y-99090729D01*
X109352186Y-99192186D01*
X109250729Y-99275448D01*
X109214991Y-99304778D01*
X109058466Y-99388443D01*
X108888627Y-99439963D01*
X108822443Y-99446481D01*
X108756260Y-99453000D01*
X108667740Y-99453000D01*
X108601557Y-99446481D01*
X108535373Y-99439963D01*
X108365534Y-99388443D01*
X108209009Y-99304778D01*
X108173271Y-99275448D01*
X108071814Y-99192186D01*
X107988552Y-99090729D01*
X107959222Y-99054991D01*
X107875557Y-98898466D01*
X107824037Y-98728627D01*
X107806641Y-98552000D01*
X107824037Y-98375373D01*
X107875557Y-98205534D01*
X107959222Y-98049009D01*
X107988552Y-98013271D01*
X108071814Y-97911814D01*
X108173271Y-97828552D01*
X108209009Y-97799222D01*
X108365534Y-97715557D01*
X108535373Y-97664037D01*
X108601557Y-97657519D01*
X108667740Y-97651000D01*
X108756260Y-97651000D01*
X108822443Y-97657519D01*
X108822443Y-97657519D01*
G37*
G36*
X126094443Y-97657519D02*
G01*
X126160627Y-97664037D01*
X126330466Y-97715557D01*
X126486991Y-97799222D01*
X126522729Y-97828552D01*
X126624186Y-97911814D01*
X126707448Y-98013271D01*
X126736778Y-98049009D01*
X126820443Y-98205534D01*
X126871963Y-98375373D01*
X126889359Y-98552000D01*
X126871963Y-98728627D01*
X126820443Y-98898466D01*
X126736778Y-99054991D01*
X126707448Y-99090729D01*
X126624186Y-99192186D01*
X126522729Y-99275448D01*
X126486991Y-99304778D01*
X126330466Y-99388443D01*
X126160627Y-99439963D01*
X126094443Y-99446481D01*
X126028260Y-99453000D01*
X125939740Y-99453000D01*
X125873557Y-99446481D01*
X125807373Y-99439963D01*
X125637534Y-99388443D01*
X125481009Y-99304778D01*
X125445271Y-99275448D01*
X125343814Y-99192186D01*
X125260552Y-99090729D01*
X125231222Y-99054991D01*
X125147557Y-98898466D01*
X125096037Y-98728627D01*
X125078641Y-98552000D01*
X125096037Y-98375373D01*
X125147557Y-98205534D01*
X125231222Y-98049009D01*
X125260552Y-98013271D01*
X125343814Y-97911814D01*
X125445271Y-97828552D01*
X125481009Y-97799222D01*
X125637534Y-97715557D01*
X125807373Y-97664037D01*
X125873557Y-97657519D01*
X125939740Y-97651000D01*
X126028260Y-97651000D01*
X126094443Y-97657519D01*
X126094443Y-97657519D01*
G37*
G36*
X106282443Y-97657519D02*
G01*
X106348627Y-97664037D01*
X106518466Y-97715557D01*
X106674991Y-97799222D01*
X106710729Y-97828552D01*
X106812186Y-97911814D01*
X106895448Y-98013271D01*
X106924778Y-98049009D01*
X107008443Y-98205534D01*
X107059963Y-98375373D01*
X107077359Y-98552000D01*
X107059963Y-98728627D01*
X107008443Y-98898466D01*
X106924778Y-99054991D01*
X106895448Y-99090729D01*
X106812186Y-99192186D01*
X106710729Y-99275448D01*
X106674991Y-99304778D01*
X106518466Y-99388443D01*
X106348627Y-99439963D01*
X106282443Y-99446481D01*
X106216260Y-99453000D01*
X106127740Y-99453000D01*
X106061557Y-99446481D01*
X105995373Y-99439963D01*
X105825534Y-99388443D01*
X105669009Y-99304778D01*
X105633271Y-99275448D01*
X105531814Y-99192186D01*
X105448552Y-99090729D01*
X105419222Y-99054991D01*
X105335557Y-98898466D01*
X105284037Y-98728627D01*
X105266641Y-98552000D01*
X105284037Y-98375373D01*
X105335557Y-98205534D01*
X105419222Y-98049009D01*
X105448552Y-98013271D01*
X105531814Y-97911814D01*
X105633271Y-97828552D01*
X105669009Y-97799222D01*
X105825534Y-97715557D01*
X105995373Y-97664037D01*
X106061557Y-97657519D01*
X106127740Y-97651000D01*
X106216260Y-97651000D01*
X106282443Y-97657519D01*
X106282443Y-97657519D01*
G37*
G36*
X120252442Y-95117518D02*
G01*
X120318627Y-95124037D01*
X120488466Y-95175557D01*
X120644991Y-95259222D01*
X120680729Y-95288552D01*
X120782186Y-95371814D01*
X120865448Y-95473271D01*
X120894778Y-95509009D01*
X120978443Y-95665534D01*
X121029963Y-95835373D01*
X121047359Y-96012000D01*
X121029963Y-96188627D01*
X120978443Y-96358466D01*
X120894778Y-96514991D01*
X120865448Y-96550729D01*
X120782186Y-96652186D01*
X120680729Y-96735448D01*
X120644991Y-96764778D01*
X120488466Y-96848443D01*
X120318627Y-96899963D01*
X120252443Y-96906481D01*
X120186260Y-96913000D01*
X120097740Y-96913000D01*
X120031557Y-96906481D01*
X119965373Y-96899963D01*
X119795534Y-96848443D01*
X119639009Y-96764778D01*
X119603271Y-96735448D01*
X119501814Y-96652186D01*
X119418552Y-96550729D01*
X119389222Y-96514991D01*
X119305557Y-96358466D01*
X119254037Y-96188627D01*
X119236641Y-96012000D01*
X119254037Y-95835373D01*
X119305557Y-95665534D01*
X119389222Y-95509009D01*
X119418552Y-95473271D01*
X119501814Y-95371814D01*
X119603271Y-95288552D01*
X119639009Y-95259222D01*
X119795534Y-95175557D01*
X119965373Y-95124037D01*
X120031558Y-95117518D01*
X120097740Y-95111000D01*
X120186260Y-95111000D01*
X120252442Y-95117518D01*
X120252442Y-95117518D01*
G37*
G36*
X128634442Y-95117518D02*
G01*
X128700627Y-95124037D01*
X128870466Y-95175557D01*
X129026991Y-95259222D01*
X129062729Y-95288552D01*
X129164186Y-95371814D01*
X129247448Y-95473271D01*
X129276778Y-95509009D01*
X129360443Y-95665534D01*
X129411963Y-95835373D01*
X129429359Y-96012000D01*
X129411963Y-96188627D01*
X129360443Y-96358466D01*
X129276778Y-96514991D01*
X129247448Y-96550729D01*
X129164186Y-96652186D01*
X129062729Y-96735448D01*
X129026991Y-96764778D01*
X128870466Y-96848443D01*
X128700627Y-96899963D01*
X128634443Y-96906481D01*
X128568260Y-96913000D01*
X128479740Y-96913000D01*
X128413557Y-96906481D01*
X128347373Y-96899963D01*
X128177534Y-96848443D01*
X128021009Y-96764778D01*
X127985271Y-96735448D01*
X127883814Y-96652186D01*
X127800552Y-96550729D01*
X127771222Y-96514991D01*
X127687557Y-96358466D01*
X127636037Y-96188627D01*
X127618641Y-96012000D01*
X127636037Y-95835373D01*
X127687557Y-95665534D01*
X127771222Y-95509009D01*
X127800552Y-95473271D01*
X127883814Y-95371814D01*
X127985271Y-95288552D01*
X128021009Y-95259222D01*
X128177534Y-95175557D01*
X128347373Y-95124037D01*
X128413558Y-95117518D01*
X128479740Y-95111000D01*
X128568260Y-95111000D01*
X128634442Y-95117518D01*
X128634442Y-95117518D01*
G37*
G36*
X108822442Y-95117518D02*
G01*
X108888627Y-95124037D01*
X109058466Y-95175557D01*
X109214991Y-95259222D01*
X109250729Y-95288552D01*
X109352186Y-95371814D01*
X109435448Y-95473271D01*
X109464778Y-95509009D01*
X109548443Y-95665534D01*
X109599963Y-95835373D01*
X109617359Y-96012000D01*
X109599963Y-96188627D01*
X109548443Y-96358466D01*
X109464778Y-96514991D01*
X109435448Y-96550729D01*
X109352186Y-96652186D01*
X109250729Y-96735448D01*
X109214991Y-96764778D01*
X109058466Y-96848443D01*
X108888627Y-96899963D01*
X108822443Y-96906481D01*
X108756260Y-96913000D01*
X108667740Y-96913000D01*
X108601557Y-96906481D01*
X108535373Y-96899963D01*
X108365534Y-96848443D01*
X108209009Y-96764778D01*
X108173271Y-96735448D01*
X108071814Y-96652186D01*
X107988552Y-96550729D01*
X107959222Y-96514991D01*
X107875557Y-96358466D01*
X107824037Y-96188627D01*
X107806641Y-96012000D01*
X107824037Y-95835373D01*
X107875557Y-95665534D01*
X107959222Y-95509009D01*
X107988552Y-95473271D01*
X108071814Y-95371814D01*
X108173271Y-95288552D01*
X108209009Y-95259222D01*
X108365534Y-95175557D01*
X108535373Y-95124037D01*
X108601558Y-95117518D01*
X108667740Y-95111000D01*
X108756260Y-95111000D01*
X108822442Y-95117518D01*
X108822442Y-95117518D01*
G37*
G36*
X106282442Y-95117518D02*
G01*
X106348627Y-95124037D01*
X106518466Y-95175557D01*
X106674991Y-95259222D01*
X106710729Y-95288552D01*
X106812186Y-95371814D01*
X106895448Y-95473271D01*
X106924778Y-95509009D01*
X107008443Y-95665534D01*
X107059963Y-95835373D01*
X107077359Y-96012000D01*
X107059963Y-96188627D01*
X107008443Y-96358466D01*
X106924778Y-96514991D01*
X106895448Y-96550729D01*
X106812186Y-96652186D01*
X106710729Y-96735448D01*
X106674991Y-96764778D01*
X106518466Y-96848443D01*
X106348627Y-96899963D01*
X106282443Y-96906481D01*
X106216260Y-96913000D01*
X106127740Y-96913000D01*
X106061557Y-96906481D01*
X105995373Y-96899963D01*
X105825534Y-96848443D01*
X105669009Y-96764778D01*
X105633271Y-96735448D01*
X105531814Y-96652186D01*
X105448552Y-96550729D01*
X105419222Y-96514991D01*
X105335557Y-96358466D01*
X105284037Y-96188627D01*
X105266641Y-96012000D01*
X105284037Y-95835373D01*
X105335557Y-95665534D01*
X105419222Y-95509009D01*
X105448552Y-95473271D01*
X105531814Y-95371814D01*
X105633271Y-95288552D01*
X105669009Y-95259222D01*
X105825534Y-95175557D01*
X105995373Y-95124037D01*
X106061558Y-95117518D01*
X106127740Y-95111000D01*
X106216260Y-95111000D01*
X106282442Y-95117518D01*
X106282442Y-95117518D01*
G37*
G36*
X115963000Y-96913000D02*
G01*
X114161000Y-96913000D01*
X114161000Y-95111000D01*
X115963000Y-95111000D01*
X115963000Y-96913000D01*
X115963000Y-96913000D01*
G37*
G36*
X117712442Y-95117518D02*
G01*
X117778627Y-95124037D01*
X117948466Y-95175557D01*
X118104991Y-95259222D01*
X118140729Y-95288552D01*
X118242186Y-95371814D01*
X118325448Y-95473271D01*
X118354778Y-95509009D01*
X118438443Y-95665534D01*
X118489963Y-95835373D01*
X118507359Y-96012000D01*
X118489963Y-96188627D01*
X118438443Y-96358466D01*
X118354778Y-96514991D01*
X118325448Y-96550729D01*
X118242186Y-96652186D01*
X118140729Y-96735448D01*
X118104991Y-96764778D01*
X117948466Y-96848443D01*
X117778627Y-96899963D01*
X117712443Y-96906481D01*
X117646260Y-96913000D01*
X117557740Y-96913000D01*
X117491557Y-96906481D01*
X117425373Y-96899963D01*
X117255534Y-96848443D01*
X117099009Y-96764778D01*
X117063271Y-96735448D01*
X116961814Y-96652186D01*
X116878552Y-96550729D01*
X116849222Y-96514991D01*
X116765557Y-96358466D01*
X116714037Y-96188627D01*
X116696641Y-96012000D01*
X116714037Y-95835373D01*
X116765557Y-95665534D01*
X116849222Y-95509009D01*
X116878552Y-95473271D01*
X116961814Y-95371814D01*
X117063271Y-95288552D01*
X117099009Y-95259222D01*
X117255534Y-95175557D01*
X117425373Y-95124037D01*
X117491558Y-95117518D01*
X117557740Y-95111000D01*
X117646260Y-95111000D01*
X117712442Y-95117518D01*
X117712442Y-95117518D01*
G37*
G36*
X126094442Y-95117518D02*
G01*
X126160627Y-95124037D01*
X126330466Y-95175557D01*
X126486991Y-95259222D01*
X126522729Y-95288552D01*
X126624186Y-95371814D01*
X126707448Y-95473271D01*
X126736778Y-95509009D01*
X126820443Y-95665534D01*
X126871963Y-95835373D01*
X126889359Y-96012000D01*
X126871963Y-96188627D01*
X126820443Y-96358466D01*
X126736778Y-96514991D01*
X126707448Y-96550729D01*
X126624186Y-96652186D01*
X126522729Y-96735448D01*
X126486991Y-96764778D01*
X126330466Y-96848443D01*
X126160627Y-96899963D01*
X126094443Y-96906481D01*
X126028260Y-96913000D01*
X125939740Y-96913000D01*
X125873557Y-96906481D01*
X125807373Y-96899963D01*
X125637534Y-96848443D01*
X125481009Y-96764778D01*
X125445271Y-96735448D01*
X125343814Y-96652186D01*
X125260552Y-96550729D01*
X125231222Y-96514991D01*
X125147557Y-96358466D01*
X125096037Y-96188627D01*
X125078641Y-96012000D01*
X125096037Y-95835373D01*
X125147557Y-95665534D01*
X125231222Y-95509009D01*
X125260552Y-95473271D01*
X125343814Y-95371814D01*
X125445271Y-95288552D01*
X125481009Y-95259222D01*
X125637534Y-95175557D01*
X125807373Y-95124037D01*
X125873558Y-95117518D01*
X125939740Y-95111000D01*
X126028260Y-95111000D01*
X126094442Y-95117518D01*
X126094442Y-95117518D01*
G37*
G36*
X106282443Y-92577519D02*
G01*
X106348627Y-92584037D01*
X106518466Y-92635557D01*
X106674991Y-92719222D01*
X106710729Y-92748552D01*
X106812186Y-92831814D01*
X106895448Y-92933271D01*
X106924778Y-92969009D01*
X107008443Y-93125534D01*
X107059963Y-93295373D01*
X107077359Y-93472000D01*
X107059963Y-93648627D01*
X107008443Y-93818466D01*
X106924778Y-93974991D01*
X106895448Y-94010729D01*
X106812186Y-94112186D01*
X106710729Y-94195448D01*
X106674991Y-94224778D01*
X106518466Y-94308443D01*
X106348627Y-94359963D01*
X106282443Y-94366481D01*
X106216260Y-94373000D01*
X106127740Y-94373000D01*
X106061557Y-94366481D01*
X105995373Y-94359963D01*
X105825534Y-94308443D01*
X105669009Y-94224778D01*
X105633271Y-94195448D01*
X105531814Y-94112186D01*
X105448552Y-94010729D01*
X105419222Y-93974991D01*
X105335557Y-93818466D01*
X105284037Y-93648627D01*
X105266641Y-93472000D01*
X105284037Y-93295373D01*
X105335557Y-93125534D01*
X105419222Y-92969009D01*
X105448552Y-92933271D01*
X105531814Y-92831814D01*
X105633271Y-92748552D01*
X105669009Y-92719222D01*
X105825534Y-92635557D01*
X105995373Y-92584037D01*
X106061557Y-92577519D01*
X106127740Y-92571000D01*
X106216260Y-92571000D01*
X106282443Y-92577519D01*
X106282443Y-92577519D01*
G37*
G36*
X128634443Y-92577519D02*
G01*
X128700627Y-92584037D01*
X128870466Y-92635557D01*
X129026991Y-92719222D01*
X129062729Y-92748552D01*
X129164186Y-92831814D01*
X129247448Y-92933271D01*
X129276778Y-92969009D01*
X129360443Y-93125534D01*
X129411963Y-93295373D01*
X129429359Y-93472000D01*
X129411963Y-93648627D01*
X129360443Y-93818466D01*
X129276778Y-93974991D01*
X129247448Y-94010729D01*
X129164186Y-94112186D01*
X129062729Y-94195448D01*
X129026991Y-94224778D01*
X128870466Y-94308443D01*
X128700627Y-94359963D01*
X128634443Y-94366481D01*
X128568260Y-94373000D01*
X128479740Y-94373000D01*
X128413557Y-94366481D01*
X128347373Y-94359963D01*
X128177534Y-94308443D01*
X128021009Y-94224778D01*
X127985271Y-94195448D01*
X127883814Y-94112186D01*
X127800552Y-94010729D01*
X127771222Y-93974991D01*
X127687557Y-93818466D01*
X127636037Y-93648627D01*
X127618641Y-93472000D01*
X127636037Y-93295373D01*
X127687557Y-93125534D01*
X127771222Y-92969009D01*
X127800552Y-92933271D01*
X127883814Y-92831814D01*
X127985271Y-92748552D01*
X128021009Y-92719222D01*
X128177534Y-92635557D01*
X128347373Y-92584037D01*
X128413557Y-92577519D01*
X128479740Y-92571000D01*
X128568260Y-92571000D01*
X128634443Y-92577519D01*
X128634443Y-92577519D01*
G37*
G36*
X126885000Y-94373000D02*
G01*
X125083000Y-94373000D01*
X125083000Y-92571000D01*
X126885000Y-92571000D01*
X126885000Y-94373000D01*
X126885000Y-94373000D01*
G37*
G36*
X108822443Y-92577519D02*
G01*
X108888627Y-92584037D01*
X109058466Y-92635557D01*
X109214991Y-92719222D01*
X109250729Y-92748552D01*
X109352186Y-92831814D01*
X109435448Y-92933271D01*
X109464778Y-92969009D01*
X109548443Y-93125534D01*
X109599963Y-93295373D01*
X109617359Y-93472000D01*
X109599963Y-93648627D01*
X109548443Y-93818466D01*
X109464778Y-93974991D01*
X109435448Y-94010729D01*
X109352186Y-94112186D01*
X109250729Y-94195448D01*
X109214991Y-94224778D01*
X109058466Y-94308443D01*
X108888627Y-94359963D01*
X108822443Y-94366481D01*
X108756260Y-94373000D01*
X108667740Y-94373000D01*
X108601557Y-94366481D01*
X108535373Y-94359963D01*
X108365534Y-94308443D01*
X108209009Y-94224778D01*
X108173271Y-94195448D01*
X108071814Y-94112186D01*
X107988552Y-94010729D01*
X107959222Y-93974991D01*
X107875557Y-93818466D01*
X107824037Y-93648627D01*
X107806641Y-93472000D01*
X107824037Y-93295373D01*
X107875557Y-93125534D01*
X107959222Y-92969009D01*
X107988552Y-92933271D01*
X108071814Y-92831814D01*
X108173271Y-92748552D01*
X108209009Y-92719222D01*
X108365534Y-92635557D01*
X108535373Y-92584037D01*
X108601557Y-92577519D01*
X108667740Y-92571000D01*
X108756260Y-92571000D01*
X108822443Y-92577519D01*
X108822443Y-92577519D01*
G37*
G36*
X115172443Y-92577519D02*
G01*
X115238627Y-92584037D01*
X115408466Y-92635557D01*
X115564991Y-92719222D01*
X115600729Y-92748552D01*
X115702186Y-92831814D01*
X115785448Y-92933271D01*
X115814778Y-92969009D01*
X115898443Y-93125534D01*
X115949963Y-93295373D01*
X115967359Y-93472000D01*
X115949963Y-93648627D01*
X115898443Y-93818466D01*
X115814778Y-93974991D01*
X115785448Y-94010729D01*
X115702186Y-94112186D01*
X115600729Y-94195448D01*
X115564991Y-94224778D01*
X115408466Y-94308443D01*
X115238627Y-94359963D01*
X115172443Y-94366481D01*
X115106260Y-94373000D01*
X115017740Y-94373000D01*
X114951557Y-94366481D01*
X114885373Y-94359963D01*
X114715534Y-94308443D01*
X114559009Y-94224778D01*
X114523271Y-94195448D01*
X114421814Y-94112186D01*
X114338552Y-94010729D01*
X114309222Y-93974991D01*
X114225557Y-93818466D01*
X114174037Y-93648627D01*
X114156641Y-93472000D01*
X114174037Y-93295373D01*
X114225557Y-93125534D01*
X114309222Y-92969009D01*
X114338552Y-92933271D01*
X114421814Y-92831814D01*
X114523271Y-92748552D01*
X114559009Y-92719222D01*
X114715534Y-92635557D01*
X114885373Y-92584037D01*
X114951557Y-92577519D01*
X115017740Y-92571000D01*
X115106260Y-92571000D01*
X115172443Y-92577519D01*
X115172443Y-92577519D01*
G37*
G36*
X117712443Y-92577519D02*
G01*
X117778627Y-92584037D01*
X117948466Y-92635557D01*
X118104991Y-92719222D01*
X118140729Y-92748552D01*
X118242186Y-92831814D01*
X118325448Y-92933271D01*
X118354778Y-92969009D01*
X118438443Y-93125534D01*
X118489963Y-93295373D01*
X118507359Y-93472000D01*
X118489963Y-93648627D01*
X118438443Y-93818466D01*
X118354778Y-93974991D01*
X118325448Y-94010729D01*
X118242186Y-94112186D01*
X118140729Y-94195448D01*
X118104991Y-94224778D01*
X117948466Y-94308443D01*
X117778627Y-94359963D01*
X117712443Y-94366481D01*
X117646260Y-94373000D01*
X117557740Y-94373000D01*
X117491557Y-94366481D01*
X117425373Y-94359963D01*
X117255534Y-94308443D01*
X117099009Y-94224778D01*
X117063271Y-94195448D01*
X116961814Y-94112186D01*
X116878552Y-94010729D01*
X116849222Y-93974991D01*
X116765557Y-93818466D01*
X116714037Y-93648627D01*
X116696641Y-93472000D01*
X116714037Y-93295373D01*
X116765557Y-93125534D01*
X116849222Y-92969009D01*
X116878552Y-92933271D01*
X116961814Y-92831814D01*
X117063271Y-92748552D01*
X117099009Y-92719222D01*
X117255534Y-92635557D01*
X117425373Y-92584037D01*
X117491557Y-92577519D01*
X117557740Y-92571000D01*
X117646260Y-92571000D01*
X117712443Y-92577519D01*
X117712443Y-92577519D01*
G37*
G36*
X120252443Y-92577519D02*
G01*
X120318627Y-92584037D01*
X120488466Y-92635557D01*
X120644991Y-92719222D01*
X120680729Y-92748552D01*
X120782186Y-92831814D01*
X120865448Y-92933271D01*
X120894778Y-92969009D01*
X120978443Y-93125534D01*
X121029963Y-93295373D01*
X121047359Y-93472000D01*
X121029963Y-93648627D01*
X120978443Y-93818466D01*
X120894778Y-93974991D01*
X120865448Y-94010729D01*
X120782186Y-94112186D01*
X120680729Y-94195448D01*
X120644991Y-94224778D01*
X120488466Y-94308443D01*
X120318627Y-94359963D01*
X120252443Y-94366481D01*
X120186260Y-94373000D01*
X120097740Y-94373000D01*
X120031557Y-94366481D01*
X119965373Y-94359963D01*
X119795534Y-94308443D01*
X119639009Y-94224778D01*
X119603271Y-94195448D01*
X119501814Y-94112186D01*
X119418552Y-94010729D01*
X119389222Y-93974991D01*
X119305557Y-93818466D01*
X119254037Y-93648627D01*
X119236641Y-93472000D01*
X119254037Y-93295373D01*
X119305557Y-93125534D01*
X119389222Y-92969009D01*
X119418552Y-92933271D01*
X119501814Y-92831814D01*
X119603271Y-92748552D01*
X119639009Y-92719222D01*
X119795534Y-92635557D01*
X119965373Y-92584037D01*
X120031557Y-92577519D01*
X120097740Y-92571000D01*
X120186260Y-92571000D01*
X120252443Y-92577519D01*
X120252443Y-92577519D01*
G37*
M02*
