G04 #@! TF.GenerationSoftware,KiCad,Pcbnew,5.1.0+dfsg1-1*
G04 #@! TF.CreationDate,2019-05-09T12:54:33+02:00*
G04 #@! TF.ProjectId,Servo_Node,53657276-6f5f-44e6-9f64-652e6b696361,0.9*
G04 #@! TF.SameCoordinates,Original*
G04 #@! TF.FileFunction,Copper,L2,Bot*
G04 #@! TF.FilePolarity,Positive*
%FSLAX46Y46*%
G04 Gerber Fmt 4.6, Leading zero omitted, Abs format (unit mm)*
G04 Created by KiCad (PCBNEW 5.1.0+dfsg1-1) date 2019-05-09 12:54:33*
%MOMM*%
%LPD*%
G04 APERTURE LIST*
%ADD10C,0.100000*%
%ADD11C,5.000000*%
%ADD12O,1.700000X1.700000*%
%ADD13R,1.700000X1.700000*%
%ADD14C,0.800000*%
%ADD15C,0.250000*%
%ADD16C,3.200000*%
%ADD17C,1.800000*%
%ADD18C,0.200000*%
G04 APERTURE END LIST*
D10*
G36*
X111060521Y-103932019D02*
G01*
X111181863Y-103950018D01*
X111300856Y-103979825D01*
X111416354Y-104021151D01*
X111527246Y-104073598D01*
X111632463Y-104136663D01*
X111730992Y-104209737D01*
X111821883Y-104292117D01*
X111904263Y-104383008D01*
X111977337Y-104481537D01*
X112040402Y-104586754D01*
X112092849Y-104697646D01*
X112134175Y-104813144D01*
X112163982Y-104932137D01*
X112181981Y-105053479D01*
X112188000Y-105176000D01*
X112188000Y-107676000D01*
X112181981Y-107798521D01*
X112163982Y-107919863D01*
X112134175Y-108038856D01*
X112092849Y-108154354D01*
X112040402Y-108265246D01*
X111977337Y-108370463D01*
X111904263Y-108468992D01*
X111821883Y-108559883D01*
X111730992Y-108642263D01*
X111632463Y-108715337D01*
X111527246Y-108778402D01*
X111416354Y-108830849D01*
X111300856Y-108872175D01*
X111181863Y-108901982D01*
X111060521Y-108919981D01*
X110938000Y-108926000D01*
X103438000Y-108926000D01*
X103315479Y-108919981D01*
X103194137Y-108901982D01*
X103075144Y-108872175D01*
X102959646Y-108830849D01*
X102848754Y-108778402D01*
X102743537Y-108715337D01*
X102645008Y-108642263D01*
X102554117Y-108559883D01*
X102471737Y-108468992D01*
X102398663Y-108370463D01*
X102335598Y-108265246D01*
X102283151Y-108154354D01*
X102241825Y-108038856D01*
X102212018Y-107919863D01*
X102194019Y-107798521D01*
X102188000Y-107676000D01*
X102188000Y-105176000D01*
X102194019Y-105053479D01*
X102212018Y-104932137D01*
X102241825Y-104813144D01*
X102283151Y-104697646D01*
X102335598Y-104586754D01*
X102398663Y-104481537D01*
X102471737Y-104383008D01*
X102554117Y-104292117D01*
X102645008Y-104209737D01*
X102743537Y-104136663D01*
X102848754Y-104073598D01*
X102959646Y-104021151D01*
X103075144Y-103979825D01*
X103194137Y-103950018D01*
X103315479Y-103932019D01*
X103438000Y-103926000D01*
X110938000Y-103926000D01*
X111060521Y-103932019D01*
X111060521Y-103932019D01*
G37*
D11*
X107188000Y-106426000D03*
D10*
G36*
X111060521Y-109520019D02*
G01*
X111181863Y-109538018D01*
X111300856Y-109567825D01*
X111416354Y-109609151D01*
X111527246Y-109661598D01*
X111632463Y-109724663D01*
X111730992Y-109797737D01*
X111821883Y-109880117D01*
X111904263Y-109971008D01*
X111977337Y-110069537D01*
X112040402Y-110174754D01*
X112092849Y-110285646D01*
X112134175Y-110401144D01*
X112163982Y-110520137D01*
X112181981Y-110641479D01*
X112188000Y-110764000D01*
X112188000Y-113264000D01*
X112181981Y-113386521D01*
X112163982Y-113507863D01*
X112134175Y-113626856D01*
X112092849Y-113742354D01*
X112040402Y-113853246D01*
X111977337Y-113958463D01*
X111904263Y-114056992D01*
X111821883Y-114147883D01*
X111730992Y-114230263D01*
X111632463Y-114303337D01*
X111527246Y-114366402D01*
X111416354Y-114418849D01*
X111300856Y-114460175D01*
X111181863Y-114489982D01*
X111060521Y-114507981D01*
X110938000Y-114514000D01*
X103438000Y-114514000D01*
X103315479Y-114507981D01*
X103194137Y-114489982D01*
X103075144Y-114460175D01*
X102959646Y-114418849D01*
X102848754Y-114366402D01*
X102743537Y-114303337D01*
X102645008Y-114230263D01*
X102554117Y-114147883D01*
X102471737Y-114056992D01*
X102398663Y-113958463D01*
X102335598Y-113853246D01*
X102283151Y-113742354D01*
X102241825Y-113626856D01*
X102212018Y-113507863D01*
X102194019Y-113386521D01*
X102188000Y-113264000D01*
X102188000Y-110764000D01*
X102194019Y-110641479D01*
X102212018Y-110520137D01*
X102241825Y-110401144D01*
X102283151Y-110285646D01*
X102335598Y-110174754D01*
X102398663Y-110069537D01*
X102471737Y-109971008D01*
X102554117Y-109880117D01*
X102645008Y-109797737D01*
X102743537Y-109724663D01*
X102848754Y-109661598D01*
X102959646Y-109609151D01*
X103075144Y-109567825D01*
X103194137Y-109538018D01*
X103315479Y-109520019D01*
X103438000Y-109514000D01*
X110938000Y-109514000D01*
X111060521Y-109520019D01*
X111060521Y-109520019D01*
G37*
D11*
X107188000Y-112014000D03*
D12*
X128524000Y-98552000D03*
X125984000Y-98552000D03*
X128524000Y-96012000D03*
X125984000Y-96012000D03*
X128524000Y-93472000D03*
D13*
X125984000Y-93472000D03*
D12*
X128524000Y-108204000D03*
X128524000Y-103124000D03*
X128524000Y-105664000D03*
X128524000Y-110744000D03*
X125984000Y-110744000D03*
X123444000Y-110744000D03*
X125984000Y-108204000D03*
X123444000Y-108204000D03*
X125984000Y-105664000D03*
X123444000Y-105664000D03*
X125984000Y-103124000D03*
D13*
X123444000Y-103124000D03*
D12*
X120142000Y-93472000D03*
X120142000Y-96012000D03*
X117602000Y-93472000D03*
X117602000Y-96012000D03*
X115062000Y-93472000D03*
D13*
X115062000Y-96012000D03*
D12*
X106172000Y-93472000D03*
X108712000Y-93472000D03*
X106172000Y-96012000D03*
X108712000Y-96012000D03*
X106172000Y-98552000D03*
X108712000Y-98552000D03*
X106172000Y-101092000D03*
D13*
X108712000Y-101092000D03*
D14*
X118110000Y-106426000D03*
X117094000Y-109982000D03*
X115824000Y-104902000D03*
X116332000Y-108712000D03*
X116586000Y-103632000D03*
D15*
X128524000Y-109982000D02*
X128524000Y-108779919D01*
X128524000Y-107442000D02*
X128524000Y-106239919D01*
D16*
X107188000Y-106426000D02*
X107188000Y-112268000D01*
D17*
X127508000Y-113792000D02*
X128524000Y-112776000D01*
X128524000Y-112776000D02*
X128524000Y-103124000D01*
X107188000Y-112014000D02*
X113030000Y-112014000D01*
X114808000Y-113792000D02*
X127508000Y-113792000D01*
X113030000Y-112014000D02*
X114808000Y-113792000D01*
D15*
X112108999Y-94647001D02*
X110744000Y-96012000D01*
X116426999Y-94647001D02*
X112108999Y-94647001D01*
X110744000Y-96012000D02*
X108712000Y-96012000D01*
X117602000Y-93472000D02*
X116426999Y-94647001D01*
X115062000Y-109474000D02*
X115062000Y-96012000D01*
X117094000Y-109982000D02*
X115570000Y-109982000D01*
X115570000Y-109982000D02*
X115062000Y-109474000D01*
X122682000Y-101092000D02*
X122682000Y-99060000D01*
X115824000Y-104902000D02*
X118872000Y-104902000D01*
X123190000Y-98552000D02*
X125984000Y-98552000D01*
X122682000Y-99060000D02*
X123190000Y-98552000D01*
X118872000Y-104902000D02*
X122682000Y-101092000D01*
X118872000Y-108712000D02*
X116332000Y-108712000D01*
X128524000Y-96012000D02*
X127348999Y-97187001D01*
X120650000Y-106934000D02*
X118872000Y-108712000D01*
X127348999Y-97187001D02*
X127348999Y-99727001D01*
X127348999Y-99727001D02*
X124714000Y-102362000D01*
X124714000Y-106426000D02*
X124206000Y-106934000D01*
X124714000Y-102362000D02*
X124714000Y-106426000D01*
X124206000Y-106934000D02*
X120650000Y-106934000D01*
X121666000Y-100838000D02*
X121666000Y-95504000D01*
X122333001Y-94836999D02*
X127159001Y-94836999D01*
X116586000Y-103632000D02*
X118872000Y-103632000D01*
X127159001Y-94836999D02*
X128524000Y-93472000D01*
X121666000Y-95504000D02*
X122333001Y-94836999D01*
X118872000Y-103632000D02*
X121666000Y-100838000D01*
D18*
G36*
X132359481Y-92073297D02*
G01*
X132383998Y-92080699D01*
X132406608Y-92092720D01*
X132426449Y-92108903D01*
X132442770Y-92128632D01*
X132454950Y-92151158D01*
X132462521Y-92175617D01*
X132467001Y-92218236D01*
X132467000Y-114535661D01*
X132462703Y-114579480D01*
X132455301Y-114603998D01*
X132443280Y-114626608D01*
X132427096Y-114646450D01*
X132407370Y-114662769D01*
X132384842Y-114674950D01*
X132360380Y-114682522D01*
X132317775Y-114687000D01*
X112496926Y-114687000D01*
X112516636Y-114650125D01*
X112536878Y-114583396D01*
X112543713Y-114514000D01*
X112542000Y-112129500D01*
X112453500Y-112041000D01*
X107215000Y-112041000D01*
X107215000Y-112061000D01*
X107161000Y-112061000D01*
X107161000Y-112041000D01*
X107141000Y-112041000D01*
X107141000Y-111987000D01*
X107161000Y-111987000D01*
X107161000Y-109248500D01*
X107132500Y-109220000D01*
X107161000Y-109191500D01*
X107161000Y-106453000D01*
X107215000Y-106453000D01*
X107215000Y-109191500D01*
X107243500Y-109220000D01*
X107215000Y-109248500D01*
X107215000Y-111987000D01*
X112453500Y-111987000D01*
X112542000Y-111898500D01*
X112542829Y-110744000D01*
X122288436Y-110744000D01*
X122310640Y-110969439D01*
X122376398Y-111186215D01*
X122483184Y-111385997D01*
X122626893Y-111561107D01*
X122802003Y-111704816D01*
X123001785Y-111811602D01*
X123218561Y-111877360D01*
X123387508Y-111894000D01*
X123500492Y-111894000D01*
X123669439Y-111877360D01*
X123886215Y-111811602D01*
X124085997Y-111704816D01*
X124261107Y-111561107D01*
X124404816Y-111385997D01*
X124511602Y-111186215D01*
X124577360Y-110969439D01*
X124599564Y-110744000D01*
X124828436Y-110744000D01*
X124850640Y-110969439D01*
X124916398Y-111186215D01*
X125023184Y-111385997D01*
X125166893Y-111561107D01*
X125342003Y-111704816D01*
X125541785Y-111811602D01*
X125758561Y-111877360D01*
X125927508Y-111894000D01*
X126040492Y-111894000D01*
X126209439Y-111877360D01*
X126426215Y-111811602D01*
X126625997Y-111704816D01*
X126801107Y-111561107D01*
X126944816Y-111385997D01*
X127051602Y-111186215D01*
X127117360Y-110969439D01*
X127118391Y-110958967D01*
X127339346Y-110958967D01*
X127347257Y-110998745D01*
X127419566Y-111223421D01*
X127534318Y-111429673D01*
X127687103Y-111609575D01*
X127872049Y-111756214D01*
X128082049Y-111863954D01*
X128309033Y-111928655D01*
X128497000Y-111859198D01*
X128497000Y-110771000D01*
X128551000Y-110771000D01*
X128551000Y-111859198D01*
X128738967Y-111928655D01*
X128965951Y-111863954D01*
X129175951Y-111756214D01*
X129360897Y-111609575D01*
X129513682Y-111429673D01*
X129628434Y-111223421D01*
X129700743Y-110998745D01*
X129708654Y-110958967D01*
X129639173Y-110771000D01*
X128551000Y-110771000D01*
X128497000Y-110771000D01*
X127408827Y-110771000D01*
X127339346Y-110958967D01*
X127118391Y-110958967D01*
X127139564Y-110744000D01*
X127118392Y-110529033D01*
X127339346Y-110529033D01*
X127408827Y-110717000D01*
X128497000Y-110717000D01*
X128497000Y-109628802D01*
X128551000Y-109628802D01*
X128551000Y-110717000D01*
X129639173Y-110717000D01*
X129708654Y-110529033D01*
X129700743Y-110489255D01*
X129628434Y-110264579D01*
X129513682Y-110058327D01*
X129360897Y-109878425D01*
X129175951Y-109731786D01*
X128965951Y-109624046D01*
X128738967Y-109559345D01*
X128551000Y-109628802D01*
X128497000Y-109628802D01*
X128309033Y-109559345D01*
X128082049Y-109624046D01*
X127872049Y-109731786D01*
X127687103Y-109878425D01*
X127534318Y-110058327D01*
X127419566Y-110264579D01*
X127347257Y-110489255D01*
X127339346Y-110529033D01*
X127118392Y-110529033D01*
X127117360Y-110518561D01*
X127051602Y-110301785D01*
X126944816Y-110102003D01*
X126801107Y-109926893D01*
X126625997Y-109783184D01*
X126426215Y-109676398D01*
X126209439Y-109610640D01*
X126040492Y-109594000D01*
X125927508Y-109594000D01*
X125758561Y-109610640D01*
X125541785Y-109676398D01*
X125342003Y-109783184D01*
X125166893Y-109926893D01*
X125023184Y-110102003D01*
X124916398Y-110301785D01*
X124850640Y-110518561D01*
X124828436Y-110744000D01*
X124599564Y-110744000D01*
X124577360Y-110518561D01*
X124511602Y-110301785D01*
X124404816Y-110102003D01*
X124261107Y-109926893D01*
X124085997Y-109783184D01*
X123886215Y-109676398D01*
X123669439Y-109610640D01*
X123500492Y-109594000D01*
X123387508Y-109594000D01*
X123218561Y-109610640D01*
X123001785Y-109676398D01*
X122802003Y-109783184D01*
X122626893Y-109926893D01*
X122483184Y-110102003D01*
X122376398Y-110301785D01*
X122310640Y-110518561D01*
X122288436Y-110744000D01*
X112542829Y-110744000D01*
X112543713Y-109514000D01*
X112536878Y-109444604D01*
X112516636Y-109377875D01*
X112483765Y-109316376D01*
X112439527Y-109262473D01*
X112387775Y-109220000D01*
X112439527Y-109177527D01*
X112483765Y-109123624D01*
X112516636Y-109062125D01*
X112536878Y-108995396D01*
X112543713Y-108926000D01*
X112542000Y-106541500D01*
X112453500Y-106453000D01*
X107215000Y-106453000D01*
X107161000Y-106453000D01*
X107141000Y-106453000D01*
X107141000Y-106399000D01*
X107161000Y-106399000D01*
X107161000Y-103660500D01*
X107215000Y-103660500D01*
X107215000Y-106399000D01*
X112453500Y-106399000D01*
X112542000Y-106310500D01*
X112543713Y-103926000D01*
X112536878Y-103856604D01*
X112516636Y-103789875D01*
X112483765Y-103728376D01*
X112439527Y-103674473D01*
X112385624Y-103630235D01*
X112324125Y-103597364D01*
X112257396Y-103577122D01*
X112188000Y-103570287D01*
X107303500Y-103572000D01*
X107215000Y-103660500D01*
X107161000Y-103660500D01*
X107072500Y-103572000D01*
X102229000Y-103570301D01*
X102229000Y-101306967D01*
X104987346Y-101306967D01*
X104995257Y-101346745D01*
X105067566Y-101571421D01*
X105182318Y-101777673D01*
X105335103Y-101957575D01*
X105520049Y-102104214D01*
X105730049Y-102211954D01*
X105957033Y-102276655D01*
X106145000Y-102207198D01*
X106145000Y-101119000D01*
X106199000Y-101119000D01*
X106199000Y-102207198D01*
X106386967Y-102276655D01*
X106613951Y-102211954D01*
X106823951Y-102104214D01*
X107008897Y-101957575D01*
X107022124Y-101942000D01*
X107506287Y-101942000D01*
X107513122Y-102011396D01*
X107533364Y-102078125D01*
X107566235Y-102139624D01*
X107610473Y-102193527D01*
X107664376Y-102237765D01*
X107725875Y-102270636D01*
X107792604Y-102290878D01*
X107862000Y-102297713D01*
X108596500Y-102296000D01*
X108685000Y-102207500D01*
X108685000Y-101119000D01*
X108739000Y-101119000D01*
X108739000Y-102207500D01*
X108827500Y-102296000D01*
X109562000Y-102297713D01*
X109631396Y-102290878D01*
X109698125Y-102270636D01*
X109759624Y-102237765D01*
X109813527Y-102193527D01*
X109857765Y-102139624D01*
X109890636Y-102078125D01*
X109910878Y-102011396D01*
X109917713Y-101942000D01*
X109916000Y-101207500D01*
X109827500Y-101119000D01*
X108739000Y-101119000D01*
X108685000Y-101119000D01*
X107596500Y-101119000D01*
X107508000Y-101207500D01*
X107506287Y-101942000D01*
X107022124Y-101942000D01*
X107161682Y-101777673D01*
X107276434Y-101571421D01*
X107348743Y-101346745D01*
X107356654Y-101306967D01*
X107287173Y-101119000D01*
X106199000Y-101119000D01*
X106145000Y-101119000D01*
X105056827Y-101119000D01*
X104987346Y-101306967D01*
X102229000Y-101306967D01*
X102229000Y-100877033D01*
X104987346Y-100877033D01*
X105056827Y-101065000D01*
X106145000Y-101065000D01*
X106145000Y-99976802D01*
X106199000Y-99976802D01*
X106199000Y-101065000D01*
X107287173Y-101065000D01*
X107356654Y-100877033D01*
X107348743Y-100837255D01*
X107276434Y-100612579D01*
X107161682Y-100406327D01*
X107022125Y-100242000D01*
X107506287Y-100242000D01*
X107508000Y-100976500D01*
X107596500Y-101065000D01*
X108685000Y-101065000D01*
X108685000Y-99976500D01*
X108739000Y-99976500D01*
X108739000Y-101065000D01*
X109827500Y-101065000D01*
X109916000Y-100976500D01*
X109917713Y-100242000D01*
X109910878Y-100172604D01*
X109890636Y-100105875D01*
X109857765Y-100044376D01*
X109813527Y-99990473D01*
X109759624Y-99946235D01*
X109698125Y-99913364D01*
X109631396Y-99893122D01*
X109562000Y-99886287D01*
X108827500Y-99888000D01*
X108739000Y-99976500D01*
X108685000Y-99976500D01*
X108596500Y-99888000D01*
X107862000Y-99886287D01*
X107792604Y-99893122D01*
X107725875Y-99913364D01*
X107664376Y-99946235D01*
X107610473Y-99990473D01*
X107566235Y-100044376D01*
X107533364Y-100105875D01*
X107513122Y-100172604D01*
X107506287Y-100242000D01*
X107022125Y-100242000D01*
X107008897Y-100226425D01*
X106823951Y-100079786D01*
X106613951Y-99972046D01*
X106386967Y-99907345D01*
X106199000Y-99976802D01*
X106145000Y-99976802D01*
X105957033Y-99907345D01*
X105730049Y-99972046D01*
X105520049Y-100079786D01*
X105335103Y-100226425D01*
X105182318Y-100406327D01*
X105067566Y-100612579D01*
X104995257Y-100837255D01*
X104987346Y-100877033D01*
X102229000Y-100877033D01*
X102229000Y-98552000D01*
X105016436Y-98552000D01*
X105038640Y-98777439D01*
X105104398Y-98994215D01*
X105211184Y-99193997D01*
X105354893Y-99369107D01*
X105530003Y-99512816D01*
X105729785Y-99619602D01*
X105946561Y-99685360D01*
X106115508Y-99702000D01*
X106228492Y-99702000D01*
X106397439Y-99685360D01*
X106614215Y-99619602D01*
X106813997Y-99512816D01*
X106989107Y-99369107D01*
X107132816Y-99193997D01*
X107239602Y-98994215D01*
X107305360Y-98777439D01*
X107327564Y-98552000D01*
X107556436Y-98552000D01*
X107578640Y-98777439D01*
X107644398Y-98994215D01*
X107751184Y-99193997D01*
X107894893Y-99369107D01*
X108070003Y-99512816D01*
X108269785Y-99619602D01*
X108486561Y-99685360D01*
X108655508Y-99702000D01*
X108768492Y-99702000D01*
X108937439Y-99685360D01*
X109154215Y-99619602D01*
X109353997Y-99512816D01*
X109529107Y-99369107D01*
X109672816Y-99193997D01*
X109779602Y-98994215D01*
X109845360Y-98777439D01*
X109867564Y-98552000D01*
X109845360Y-98326561D01*
X109779602Y-98109785D01*
X109672816Y-97910003D01*
X109529107Y-97734893D01*
X109353997Y-97591184D01*
X109154215Y-97484398D01*
X108937439Y-97418640D01*
X108768492Y-97402000D01*
X108655508Y-97402000D01*
X108486561Y-97418640D01*
X108269785Y-97484398D01*
X108070003Y-97591184D01*
X107894893Y-97734893D01*
X107751184Y-97910003D01*
X107644398Y-98109785D01*
X107578640Y-98326561D01*
X107556436Y-98552000D01*
X107327564Y-98552000D01*
X107305360Y-98326561D01*
X107239602Y-98109785D01*
X107132816Y-97910003D01*
X106989107Y-97734893D01*
X106813997Y-97591184D01*
X106614215Y-97484398D01*
X106397439Y-97418640D01*
X106228492Y-97402000D01*
X106115508Y-97402000D01*
X105946561Y-97418640D01*
X105729785Y-97484398D01*
X105530003Y-97591184D01*
X105354893Y-97734893D01*
X105211184Y-97910003D01*
X105104398Y-98109785D01*
X105038640Y-98326561D01*
X105016436Y-98552000D01*
X102229000Y-98552000D01*
X102229000Y-96012000D01*
X105016436Y-96012000D01*
X105038640Y-96237439D01*
X105104398Y-96454215D01*
X105211184Y-96653997D01*
X105354893Y-96829107D01*
X105530003Y-96972816D01*
X105729785Y-97079602D01*
X105946561Y-97145360D01*
X106115508Y-97162000D01*
X106228492Y-97162000D01*
X106397439Y-97145360D01*
X106614215Y-97079602D01*
X106813997Y-96972816D01*
X106989107Y-96829107D01*
X107132816Y-96653997D01*
X107239602Y-96454215D01*
X107305360Y-96237439D01*
X107327564Y-96012000D01*
X107556436Y-96012000D01*
X107578640Y-96237439D01*
X107644398Y-96454215D01*
X107751184Y-96653997D01*
X107894893Y-96829107D01*
X108070003Y-96972816D01*
X108269785Y-97079602D01*
X108486561Y-97145360D01*
X108655508Y-97162000D01*
X108768492Y-97162000D01*
X108937439Y-97145360D01*
X109154215Y-97079602D01*
X109353997Y-96972816D01*
X109529107Y-96829107D01*
X109672816Y-96653997D01*
X109779602Y-96454215D01*
X109784824Y-96437000D01*
X110723133Y-96437000D01*
X110744000Y-96439055D01*
X110764867Y-96437000D01*
X110764874Y-96437000D01*
X110827314Y-96430850D01*
X110907427Y-96406548D01*
X110981260Y-96367084D01*
X111045974Y-96313974D01*
X111059283Y-96297757D01*
X112285040Y-95072001D01*
X113925802Y-95072001D01*
X113916341Y-95103190D01*
X113910549Y-95162000D01*
X113910549Y-96862000D01*
X113916341Y-96920810D01*
X113933496Y-96977360D01*
X113961353Y-97029477D01*
X113998842Y-97075158D01*
X114044523Y-97112647D01*
X114096640Y-97140504D01*
X114153190Y-97157659D01*
X114212000Y-97163451D01*
X114637001Y-97163451D01*
X114637000Y-109453133D01*
X114634945Y-109474000D01*
X114637000Y-109494867D01*
X114637000Y-109494873D01*
X114638884Y-109514000D01*
X114643150Y-109557314D01*
X114650522Y-109581616D01*
X114667452Y-109637426D01*
X114706916Y-109711259D01*
X114760026Y-109775974D01*
X114776243Y-109789283D01*
X115254721Y-110267762D01*
X115268026Y-110283974D01*
X115284238Y-110297279D01*
X115284239Y-110297280D01*
X115304093Y-110313574D01*
X115332740Y-110337084D01*
X115406573Y-110376548D01*
X115462383Y-110393478D01*
X115486685Y-110400850D01*
X115495098Y-110401679D01*
X115549126Y-110407000D01*
X115549132Y-110407000D01*
X115569999Y-110409055D01*
X115590866Y-110407000D01*
X116536093Y-110407000D01*
X116550274Y-110428224D01*
X116647776Y-110525726D01*
X116762426Y-110602332D01*
X116889818Y-110655099D01*
X117025056Y-110682000D01*
X117162944Y-110682000D01*
X117298182Y-110655099D01*
X117425574Y-110602332D01*
X117540224Y-110525726D01*
X117637726Y-110428224D01*
X117714332Y-110313574D01*
X117767099Y-110186182D01*
X117794000Y-110050944D01*
X117794000Y-109913056D01*
X117767099Y-109777818D01*
X117714332Y-109650426D01*
X117637726Y-109535776D01*
X117540224Y-109438274D01*
X117425574Y-109361668D01*
X117298182Y-109308901D01*
X117162944Y-109282000D01*
X117025056Y-109282000D01*
X116889818Y-109308901D01*
X116762426Y-109361668D01*
X116647776Y-109438274D01*
X116550274Y-109535776D01*
X116536093Y-109557000D01*
X115746041Y-109557000D01*
X115487000Y-109297960D01*
X115487000Y-105518706D01*
X115492426Y-105522332D01*
X115619818Y-105575099D01*
X115755056Y-105602000D01*
X115892944Y-105602000D01*
X116028182Y-105575099D01*
X116155574Y-105522332D01*
X116270224Y-105445726D01*
X116367726Y-105348224D01*
X116381907Y-105327000D01*
X118851133Y-105327000D01*
X118872000Y-105329055D01*
X118892867Y-105327000D01*
X118892874Y-105327000D01*
X118955314Y-105320850D01*
X119035427Y-105296548D01*
X119109260Y-105257084D01*
X119173974Y-105203974D01*
X119187284Y-105187757D01*
X122967763Y-101407278D01*
X122983974Y-101393974D01*
X123037084Y-101329260D01*
X123076548Y-101255427D01*
X123100850Y-101175314D01*
X123107000Y-101112874D01*
X123107000Y-101112867D01*
X123109055Y-101092000D01*
X123107000Y-101071133D01*
X123107000Y-99236040D01*
X123366041Y-98977000D01*
X124911176Y-98977000D01*
X124916398Y-98994215D01*
X125023184Y-99193997D01*
X125166893Y-99369107D01*
X125342003Y-99512816D01*
X125541785Y-99619602D01*
X125758561Y-99685360D01*
X125927508Y-99702000D01*
X126040492Y-99702000D01*
X126209439Y-99685360D01*
X126426215Y-99619602D01*
X126625997Y-99512816D01*
X126801107Y-99369107D01*
X126924000Y-99219362D01*
X126924000Y-99550959D01*
X124455045Y-102019915D01*
X124409360Y-101995496D01*
X124352810Y-101978341D01*
X124294000Y-101972549D01*
X122594000Y-101972549D01*
X122535190Y-101978341D01*
X122478640Y-101995496D01*
X122426523Y-102023353D01*
X122380842Y-102060842D01*
X122343353Y-102106523D01*
X122315496Y-102158640D01*
X122298341Y-102215190D01*
X122292549Y-102274000D01*
X122292549Y-103974000D01*
X122298341Y-104032810D01*
X122315496Y-104089360D01*
X122343353Y-104141477D01*
X122380842Y-104187158D01*
X122426523Y-104224647D01*
X122478640Y-104252504D01*
X122535190Y-104269659D01*
X122594000Y-104275451D01*
X124289000Y-104275451D01*
X124289001Y-104880881D01*
X124261107Y-104846893D01*
X124085997Y-104703184D01*
X123886215Y-104596398D01*
X123669439Y-104530640D01*
X123500492Y-104514000D01*
X123387508Y-104514000D01*
X123218561Y-104530640D01*
X123001785Y-104596398D01*
X122802003Y-104703184D01*
X122626893Y-104846893D01*
X122483184Y-105022003D01*
X122376398Y-105221785D01*
X122310640Y-105438561D01*
X122288436Y-105664000D01*
X122310640Y-105889439D01*
X122376398Y-106106215D01*
X122483184Y-106305997D01*
X122626893Y-106481107D01*
X122660881Y-106509000D01*
X120670867Y-106509000D01*
X120650000Y-106506945D01*
X120629133Y-106509000D01*
X120629126Y-106509000D01*
X120566686Y-106515150D01*
X120486572Y-106539452D01*
X120482741Y-106541500D01*
X120412740Y-106578916D01*
X120348026Y-106632026D01*
X120334721Y-106648238D01*
X118695960Y-108287000D01*
X116889907Y-108287000D01*
X116875726Y-108265776D01*
X116778224Y-108168274D01*
X116663574Y-108091668D01*
X116536182Y-108038901D01*
X116400944Y-108012000D01*
X116263056Y-108012000D01*
X116127818Y-108038901D01*
X116000426Y-108091668D01*
X115885776Y-108168274D01*
X115788274Y-108265776D01*
X115711668Y-108380426D01*
X115658901Y-108507818D01*
X115632000Y-108643056D01*
X115632000Y-108780944D01*
X115658901Y-108916182D01*
X115711668Y-109043574D01*
X115788274Y-109158224D01*
X115885776Y-109255726D01*
X116000426Y-109332332D01*
X116127818Y-109385099D01*
X116263056Y-109412000D01*
X116400944Y-109412000D01*
X116536182Y-109385099D01*
X116663574Y-109332332D01*
X116778224Y-109255726D01*
X116875726Y-109158224D01*
X116889907Y-109137000D01*
X118851133Y-109137000D01*
X118872000Y-109139055D01*
X118892867Y-109137000D01*
X118892874Y-109137000D01*
X118955314Y-109130850D01*
X119035427Y-109106548D01*
X119109260Y-109067084D01*
X119173974Y-109013974D01*
X119187283Y-108997757D01*
X120826041Y-107359000D01*
X122660881Y-107359000D01*
X122626893Y-107386893D01*
X122483184Y-107562003D01*
X122376398Y-107761785D01*
X122310640Y-107978561D01*
X122288436Y-108204000D01*
X122310640Y-108429439D01*
X122376398Y-108646215D01*
X122483184Y-108845997D01*
X122626893Y-109021107D01*
X122802003Y-109164816D01*
X123001785Y-109271602D01*
X123218561Y-109337360D01*
X123387508Y-109354000D01*
X123500492Y-109354000D01*
X123669439Y-109337360D01*
X123886215Y-109271602D01*
X124085997Y-109164816D01*
X124261107Y-109021107D01*
X124404816Y-108845997D01*
X124511602Y-108646215D01*
X124577360Y-108429439D01*
X124599564Y-108204000D01*
X124828436Y-108204000D01*
X124850640Y-108429439D01*
X124916398Y-108646215D01*
X125023184Y-108845997D01*
X125166893Y-109021107D01*
X125342003Y-109164816D01*
X125541785Y-109271602D01*
X125758561Y-109337360D01*
X125927508Y-109354000D01*
X126040492Y-109354000D01*
X126209439Y-109337360D01*
X126426215Y-109271602D01*
X126625997Y-109164816D01*
X126801107Y-109021107D01*
X126944816Y-108845997D01*
X127051602Y-108646215D01*
X127117360Y-108429439D01*
X127118391Y-108418967D01*
X127339346Y-108418967D01*
X127347257Y-108458745D01*
X127419566Y-108683421D01*
X127534318Y-108889673D01*
X127687103Y-109069575D01*
X127872049Y-109216214D01*
X128082049Y-109323954D01*
X128309033Y-109388655D01*
X128497000Y-109319198D01*
X128497000Y-108231000D01*
X128551000Y-108231000D01*
X128551000Y-109319198D01*
X128738967Y-109388655D01*
X128965951Y-109323954D01*
X129175951Y-109216214D01*
X129360897Y-109069575D01*
X129513682Y-108889673D01*
X129628434Y-108683421D01*
X129700743Y-108458745D01*
X129708654Y-108418967D01*
X129639173Y-108231000D01*
X128551000Y-108231000D01*
X128497000Y-108231000D01*
X127408827Y-108231000D01*
X127339346Y-108418967D01*
X127118391Y-108418967D01*
X127139564Y-108204000D01*
X127118392Y-107989033D01*
X127339346Y-107989033D01*
X127408827Y-108177000D01*
X128497000Y-108177000D01*
X128497000Y-107088802D01*
X128551000Y-107088802D01*
X128551000Y-108177000D01*
X129639173Y-108177000D01*
X129708654Y-107989033D01*
X129700743Y-107949255D01*
X129628434Y-107724579D01*
X129513682Y-107518327D01*
X129360897Y-107338425D01*
X129175951Y-107191786D01*
X128965951Y-107084046D01*
X128738967Y-107019345D01*
X128551000Y-107088802D01*
X128497000Y-107088802D01*
X128309033Y-107019345D01*
X128082049Y-107084046D01*
X127872049Y-107191786D01*
X127687103Y-107338425D01*
X127534318Y-107518327D01*
X127419566Y-107724579D01*
X127347257Y-107949255D01*
X127339346Y-107989033D01*
X127118392Y-107989033D01*
X127117360Y-107978561D01*
X127051602Y-107761785D01*
X126944816Y-107562003D01*
X126801107Y-107386893D01*
X126625997Y-107243184D01*
X126426215Y-107136398D01*
X126209439Y-107070640D01*
X126040492Y-107054000D01*
X125927508Y-107054000D01*
X125758561Y-107070640D01*
X125541785Y-107136398D01*
X125342003Y-107243184D01*
X125166893Y-107386893D01*
X125023184Y-107562003D01*
X124916398Y-107761785D01*
X124850640Y-107978561D01*
X124828436Y-108204000D01*
X124599564Y-108204000D01*
X124577360Y-107978561D01*
X124511602Y-107761785D01*
X124404816Y-107562003D01*
X124261107Y-107386893D01*
X124227093Y-107358978D01*
X124289314Y-107352850D01*
X124369427Y-107328548D01*
X124443260Y-107289084D01*
X124507974Y-107235974D01*
X124521283Y-107219757D01*
X124999762Y-106741279D01*
X125015974Y-106727974D01*
X125069084Y-106663260D01*
X125108548Y-106589427D01*
X125132850Y-106509314D01*
X125138978Y-106447093D01*
X125166893Y-106481107D01*
X125342003Y-106624816D01*
X125541785Y-106731602D01*
X125758561Y-106797360D01*
X125927508Y-106814000D01*
X126040492Y-106814000D01*
X126209439Y-106797360D01*
X126426215Y-106731602D01*
X126625997Y-106624816D01*
X126801107Y-106481107D01*
X126944816Y-106305997D01*
X127051602Y-106106215D01*
X127117360Y-105889439D01*
X127118391Y-105878967D01*
X127339346Y-105878967D01*
X127347257Y-105918745D01*
X127419566Y-106143421D01*
X127534318Y-106349673D01*
X127687103Y-106529575D01*
X127872049Y-106676214D01*
X128082049Y-106783954D01*
X128309033Y-106848655D01*
X128497000Y-106779198D01*
X128497000Y-105691000D01*
X128551000Y-105691000D01*
X128551000Y-106779198D01*
X128738967Y-106848655D01*
X128965951Y-106783954D01*
X129175951Y-106676214D01*
X129360897Y-106529575D01*
X129513682Y-106349673D01*
X129628434Y-106143421D01*
X129700743Y-105918745D01*
X129708654Y-105878967D01*
X129639173Y-105691000D01*
X128551000Y-105691000D01*
X128497000Y-105691000D01*
X127408827Y-105691000D01*
X127339346Y-105878967D01*
X127118391Y-105878967D01*
X127139564Y-105664000D01*
X127118392Y-105449033D01*
X127339346Y-105449033D01*
X127408827Y-105637000D01*
X128497000Y-105637000D01*
X128497000Y-104548802D01*
X128551000Y-104548802D01*
X128551000Y-105637000D01*
X129639173Y-105637000D01*
X129708654Y-105449033D01*
X129700743Y-105409255D01*
X129628434Y-105184579D01*
X129513682Y-104978327D01*
X129360897Y-104798425D01*
X129175951Y-104651786D01*
X128965951Y-104544046D01*
X128738967Y-104479345D01*
X128551000Y-104548802D01*
X128497000Y-104548802D01*
X128309033Y-104479345D01*
X128082049Y-104544046D01*
X127872049Y-104651786D01*
X127687103Y-104798425D01*
X127534318Y-104978327D01*
X127419566Y-105184579D01*
X127347257Y-105409255D01*
X127339346Y-105449033D01*
X127118392Y-105449033D01*
X127117360Y-105438561D01*
X127051602Y-105221785D01*
X126944816Y-105022003D01*
X126801107Y-104846893D01*
X126625997Y-104703184D01*
X126426215Y-104596398D01*
X126209439Y-104530640D01*
X126040492Y-104514000D01*
X125927508Y-104514000D01*
X125758561Y-104530640D01*
X125541785Y-104596398D01*
X125342003Y-104703184D01*
X125166893Y-104846893D01*
X125139000Y-104880881D01*
X125139000Y-103907119D01*
X125166893Y-103941107D01*
X125342003Y-104084816D01*
X125541785Y-104191602D01*
X125758561Y-104257360D01*
X125927508Y-104274000D01*
X126040492Y-104274000D01*
X126209439Y-104257360D01*
X126426215Y-104191602D01*
X126625997Y-104084816D01*
X126801107Y-103941107D01*
X126944816Y-103765997D01*
X127051602Y-103566215D01*
X127117360Y-103349439D01*
X127118391Y-103338967D01*
X127339346Y-103338967D01*
X127347257Y-103378745D01*
X127419566Y-103603421D01*
X127534318Y-103809673D01*
X127687103Y-103989575D01*
X127872049Y-104136214D01*
X128082049Y-104243954D01*
X128309033Y-104308655D01*
X128497000Y-104239198D01*
X128497000Y-103151000D01*
X128551000Y-103151000D01*
X128551000Y-104239198D01*
X128738967Y-104308655D01*
X128965951Y-104243954D01*
X129175951Y-104136214D01*
X129360897Y-103989575D01*
X129513682Y-103809673D01*
X129628434Y-103603421D01*
X129700743Y-103378745D01*
X129708654Y-103338967D01*
X129639173Y-103151000D01*
X128551000Y-103151000D01*
X128497000Y-103151000D01*
X127408827Y-103151000D01*
X127339346Y-103338967D01*
X127118391Y-103338967D01*
X127139564Y-103124000D01*
X127118392Y-102909033D01*
X127339346Y-102909033D01*
X127408827Y-103097000D01*
X128497000Y-103097000D01*
X128497000Y-102008802D01*
X128551000Y-102008802D01*
X128551000Y-103097000D01*
X129639173Y-103097000D01*
X129708654Y-102909033D01*
X129700743Y-102869255D01*
X129628434Y-102644579D01*
X129513682Y-102438327D01*
X129360897Y-102258425D01*
X129175951Y-102111786D01*
X128965951Y-102004046D01*
X128738967Y-101939345D01*
X128551000Y-102008802D01*
X128497000Y-102008802D01*
X128309033Y-101939345D01*
X128082049Y-102004046D01*
X127872049Y-102111786D01*
X127687103Y-102258425D01*
X127534318Y-102438327D01*
X127419566Y-102644579D01*
X127347257Y-102869255D01*
X127339346Y-102909033D01*
X127118392Y-102909033D01*
X127117360Y-102898561D01*
X127051602Y-102681785D01*
X126944816Y-102482003D01*
X126801107Y-102306893D01*
X126625997Y-102163184D01*
X126426215Y-102056398D01*
X126209439Y-101990640D01*
X126040492Y-101974000D01*
X125927508Y-101974000D01*
X125758561Y-101990640D01*
X125654979Y-102022061D01*
X127634761Y-100042280D01*
X127650973Y-100028975D01*
X127704083Y-99964261D01*
X127743547Y-99890428D01*
X127767849Y-99810315D01*
X127773999Y-99747875D01*
X127773999Y-99747869D01*
X127776054Y-99727002D01*
X127773999Y-99706135D01*
X127773999Y-99424179D01*
X127882003Y-99512816D01*
X128081785Y-99619602D01*
X128298561Y-99685360D01*
X128467508Y-99702000D01*
X128580492Y-99702000D01*
X128749439Y-99685360D01*
X128966215Y-99619602D01*
X129165997Y-99512816D01*
X129341107Y-99369107D01*
X129484816Y-99193997D01*
X129591602Y-98994215D01*
X129657360Y-98777439D01*
X129679564Y-98552000D01*
X129657360Y-98326561D01*
X129591602Y-98109785D01*
X129484816Y-97910003D01*
X129341107Y-97734893D01*
X129165997Y-97591184D01*
X128966215Y-97484398D01*
X128749439Y-97418640D01*
X128580492Y-97402000D01*
X128467508Y-97402000D01*
X128298561Y-97418640D01*
X128081785Y-97484398D01*
X127882003Y-97591184D01*
X127773999Y-97679821D01*
X127773999Y-97363041D01*
X128065919Y-97071121D01*
X128081785Y-97079602D01*
X128298561Y-97145360D01*
X128467508Y-97162000D01*
X128580492Y-97162000D01*
X128749439Y-97145360D01*
X128966215Y-97079602D01*
X129165997Y-96972816D01*
X129341107Y-96829107D01*
X129484816Y-96653997D01*
X129591602Y-96454215D01*
X129657360Y-96237439D01*
X129679564Y-96012000D01*
X129657360Y-95786561D01*
X129591602Y-95569785D01*
X129484816Y-95370003D01*
X129341107Y-95194893D01*
X129165997Y-95051184D01*
X128966215Y-94944398D01*
X128749439Y-94878640D01*
X128580492Y-94862000D01*
X128467508Y-94862000D01*
X128298561Y-94878640D01*
X128081785Y-94944398D01*
X127882003Y-95051184D01*
X127706893Y-95194893D01*
X127563184Y-95370003D01*
X127456398Y-95569785D01*
X127390640Y-95786561D01*
X127368436Y-96012000D01*
X127390640Y-96237439D01*
X127456398Y-96454215D01*
X127464879Y-96470081D01*
X127063242Y-96871718D01*
X127047025Y-96885027D01*
X126993915Y-96949742D01*
X126954451Y-97023575D01*
X126930149Y-97103688D01*
X126923999Y-97166128D01*
X126923999Y-97166134D01*
X126921944Y-97187001D01*
X126923999Y-97207868D01*
X126923999Y-97884638D01*
X126801107Y-97734893D01*
X126625997Y-97591184D01*
X126426215Y-97484398D01*
X126209439Y-97418640D01*
X126040492Y-97402000D01*
X125927508Y-97402000D01*
X125758561Y-97418640D01*
X125541785Y-97484398D01*
X125342003Y-97591184D01*
X125166893Y-97734893D01*
X125023184Y-97910003D01*
X124916398Y-98109785D01*
X124911176Y-98127000D01*
X123210866Y-98127000D01*
X123189999Y-98124945D01*
X123169132Y-98127000D01*
X123169126Y-98127000D01*
X123115098Y-98132321D01*
X123106685Y-98133150D01*
X123082383Y-98140522D01*
X123026573Y-98157452D01*
X122952740Y-98196916D01*
X122888026Y-98250026D01*
X122874721Y-98266238D01*
X122396239Y-98744721D01*
X122380027Y-98758026D01*
X122326917Y-98822740D01*
X122287453Y-98896573D01*
X122263150Y-98976686D01*
X122254945Y-99060000D01*
X122257001Y-99080877D01*
X122257000Y-100915959D01*
X118695960Y-104477000D01*
X116381907Y-104477000D01*
X116367726Y-104455776D01*
X116270224Y-104358274D01*
X116155574Y-104281668D01*
X116028182Y-104228901D01*
X115892944Y-104202000D01*
X115755056Y-104202000D01*
X115619818Y-104228901D01*
X115492426Y-104281668D01*
X115487000Y-104285294D01*
X115487000Y-103563056D01*
X115886000Y-103563056D01*
X115886000Y-103700944D01*
X115912901Y-103836182D01*
X115965668Y-103963574D01*
X116042274Y-104078224D01*
X116139776Y-104175726D01*
X116254426Y-104252332D01*
X116381818Y-104305099D01*
X116517056Y-104332000D01*
X116654944Y-104332000D01*
X116790182Y-104305099D01*
X116917574Y-104252332D01*
X117032224Y-104175726D01*
X117129726Y-104078224D01*
X117143907Y-104057000D01*
X118851133Y-104057000D01*
X118872000Y-104059055D01*
X118892867Y-104057000D01*
X118892874Y-104057000D01*
X118955314Y-104050850D01*
X119035427Y-104026548D01*
X119109260Y-103987084D01*
X119173974Y-103933974D01*
X119187283Y-103917757D01*
X121951763Y-101153278D01*
X121967974Y-101139974D01*
X122021084Y-101075260D01*
X122056668Y-101008686D01*
X122060548Y-101001428D01*
X122084850Y-100921314D01*
X122089211Y-100877033D01*
X122091000Y-100858874D01*
X122091000Y-100858867D01*
X122093055Y-100838000D01*
X122091000Y-100817133D01*
X122091000Y-95680040D01*
X122509042Y-95261999D01*
X125111821Y-95261999D01*
X125023184Y-95370003D01*
X124916398Y-95569785D01*
X124850640Y-95786561D01*
X124828436Y-96012000D01*
X124850640Y-96237439D01*
X124916398Y-96454215D01*
X125023184Y-96653997D01*
X125166893Y-96829107D01*
X125342003Y-96972816D01*
X125541785Y-97079602D01*
X125758561Y-97145360D01*
X125927508Y-97162000D01*
X126040492Y-97162000D01*
X126209439Y-97145360D01*
X126426215Y-97079602D01*
X126625997Y-96972816D01*
X126801107Y-96829107D01*
X126944816Y-96653997D01*
X127051602Y-96454215D01*
X127117360Y-96237439D01*
X127139564Y-96012000D01*
X127117360Y-95786561D01*
X127051602Y-95569785D01*
X126944816Y-95370003D01*
X126856179Y-95261999D01*
X127138134Y-95261999D01*
X127159001Y-95264054D01*
X127179868Y-95261999D01*
X127179875Y-95261999D01*
X127242315Y-95255849D01*
X127322428Y-95231547D01*
X127396261Y-95192083D01*
X127460975Y-95138973D01*
X127474284Y-95122756D01*
X128065919Y-94531121D01*
X128081785Y-94539602D01*
X128298561Y-94605360D01*
X128467508Y-94622000D01*
X128580492Y-94622000D01*
X128749439Y-94605360D01*
X128966215Y-94539602D01*
X129165997Y-94432816D01*
X129341107Y-94289107D01*
X129484816Y-94113997D01*
X129591602Y-93914215D01*
X129657360Y-93697439D01*
X129679564Y-93472000D01*
X129657360Y-93246561D01*
X129591602Y-93029785D01*
X129484816Y-92830003D01*
X129341107Y-92654893D01*
X129165997Y-92511184D01*
X128966215Y-92404398D01*
X128749439Y-92338640D01*
X128580492Y-92322000D01*
X128467508Y-92322000D01*
X128298561Y-92338640D01*
X128081785Y-92404398D01*
X127882003Y-92511184D01*
X127706893Y-92654893D01*
X127563184Y-92830003D01*
X127456398Y-93029785D01*
X127390640Y-93246561D01*
X127368436Y-93472000D01*
X127390640Y-93697439D01*
X127456398Y-93914215D01*
X127464879Y-93930081D01*
X127189441Y-94205518D01*
X127188000Y-93587500D01*
X127099500Y-93499000D01*
X126011000Y-93499000D01*
X126011000Y-93519000D01*
X125957000Y-93519000D01*
X125957000Y-93499000D01*
X124868500Y-93499000D01*
X124780000Y-93587500D01*
X124778287Y-94322000D01*
X124785122Y-94391396D01*
X124791372Y-94411999D01*
X122353868Y-94411999D01*
X122333001Y-94409944D01*
X122312134Y-94411999D01*
X122312127Y-94411999D01*
X122257328Y-94417396D01*
X122249686Y-94418149D01*
X122169573Y-94442451D01*
X122143856Y-94456198D01*
X122095741Y-94481915D01*
X122031027Y-94535025D01*
X122017722Y-94551237D01*
X121380239Y-95188721D01*
X121364027Y-95202026D01*
X121310917Y-95266740D01*
X121271453Y-95340573D01*
X121247150Y-95420686D01*
X121238945Y-95504000D01*
X121241001Y-95524877D01*
X121241001Y-95673294D01*
X121209602Y-95569785D01*
X121102816Y-95370003D01*
X120959107Y-95194893D01*
X120783997Y-95051184D01*
X120584215Y-94944398D01*
X120367439Y-94878640D01*
X120198492Y-94862000D01*
X120085508Y-94862000D01*
X119916561Y-94878640D01*
X119699785Y-94944398D01*
X119500003Y-95051184D01*
X119324893Y-95194893D01*
X119181184Y-95370003D01*
X119074398Y-95569785D01*
X119008640Y-95786561D01*
X118986436Y-96012000D01*
X119008640Y-96237439D01*
X119074398Y-96454215D01*
X119181184Y-96653997D01*
X119324893Y-96829107D01*
X119500003Y-96972816D01*
X119699785Y-97079602D01*
X119916561Y-97145360D01*
X120085508Y-97162000D01*
X120198492Y-97162000D01*
X120367439Y-97145360D01*
X120584215Y-97079602D01*
X120783997Y-96972816D01*
X120959107Y-96829107D01*
X121102816Y-96653997D01*
X121209602Y-96454215D01*
X121241001Y-96350706D01*
X121241000Y-100661959D01*
X118695960Y-103207000D01*
X117143907Y-103207000D01*
X117129726Y-103185776D01*
X117032224Y-103088274D01*
X116917574Y-103011668D01*
X116790182Y-102958901D01*
X116654944Y-102932000D01*
X116517056Y-102932000D01*
X116381818Y-102958901D01*
X116254426Y-103011668D01*
X116139776Y-103088274D01*
X116042274Y-103185776D01*
X115965668Y-103300426D01*
X115912901Y-103427818D01*
X115886000Y-103563056D01*
X115487000Y-103563056D01*
X115487000Y-97163451D01*
X115912000Y-97163451D01*
X115970810Y-97157659D01*
X116027360Y-97140504D01*
X116079477Y-97112647D01*
X116125158Y-97075158D01*
X116162647Y-97029477D01*
X116190504Y-96977360D01*
X116207659Y-96920810D01*
X116213451Y-96862000D01*
X116213451Y-96012000D01*
X116446436Y-96012000D01*
X116468640Y-96237439D01*
X116534398Y-96454215D01*
X116641184Y-96653997D01*
X116784893Y-96829107D01*
X116960003Y-96972816D01*
X117159785Y-97079602D01*
X117376561Y-97145360D01*
X117545508Y-97162000D01*
X117658492Y-97162000D01*
X117827439Y-97145360D01*
X118044215Y-97079602D01*
X118243997Y-96972816D01*
X118419107Y-96829107D01*
X118562816Y-96653997D01*
X118669602Y-96454215D01*
X118735360Y-96237439D01*
X118757564Y-96012000D01*
X118735360Y-95786561D01*
X118669602Y-95569785D01*
X118562816Y-95370003D01*
X118419107Y-95194893D01*
X118243997Y-95051184D01*
X118044215Y-94944398D01*
X117827439Y-94878640D01*
X117658492Y-94862000D01*
X117545508Y-94862000D01*
X117376561Y-94878640D01*
X117159785Y-94944398D01*
X116960003Y-95051184D01*
X116784893Y-95194893D01*
X116641184Y-95370003D01*
X116534398Y-95569785D01*
X116468640Y-95786561D01*
X116446436Y-96012000D01*
X116213451Y-96012000D01*
X116213451Y-95162000D01*
X116207659Y-95103190D01*
X116198198Y-95072001D01*
X116406132Y-95072001D01*
X116426999Y-95074056D01*
X116447866Y-95072001D01*
X116447873Y-95072001D01*
X116510313Y-95065851D01*
X116590426Y-95041549D01*
X116664259Y-95002085D01*
X116728973Y-94948975D01*
X116742282Y-94932758D01*
X117143919Y-94531121D01*
X117159785Y-94539602D01*
X117376561Y-94605360D01*
X117545508Y-94622000D01*
X117658492Y-94622000D01*
X117827439Y-94605360D01*
X118044215Y-94539602D01*
X118243997Y-94432816D01*
X118419107Y-94289107D01*
X118562816Y-94113997D01*
X118669602Y-93914215D01*
X118735360Y-93697439D01*
X118736391Y-93686967D01*
X118957345Y-93686967D01*
X119022046Y-93913951D01*
X119129786Y-94123951D01*
X119276425Y-94308897D01*
X119456327Y-94461682D01*
X119662579Y-94576434D01*
X119887255Y-94648743D01*
X119927033Y-94656654D01*
X120115000Y-94587173D01*
X120115000Y-93499000D01*
X120169000Y-93499000D01*
X120169000Y-94587173D01*
X120356967Y-94656654D01*
X120396745Y-94648743D01*
X120621421Y-94576434D01*
X120827673Y-94461682D01*
X121007575Y-94308897D01*
X121154214Y-94123951D01*
X121261954Y-93913951D01*
X121326655Y-93686967D01*
X121257198Y-93499000D01*
X120169000Y-93499000D01*
X120115000Y-93499000D01*
X119026802Y-93499000D01*
X118957345Y-93686967D01*
X118736391Y-93686967D01*
X118757564Y-93472000D01*
X118736392Y-93257033D01*
X118957345Y-93257033D01*
X119026802Y-93445000D01*
X120115000Y-93445000D01*
X120115000Y-92356827D01*
X120169000Y-92356827D01*
X120169000Y-93445000D01*
X121257198Y-93445000D01*
X121326655Y-93257033D01*
X121261954Y-93030049D01*
X121154214Y-92820049D01*
X121007575Y-92635103D01*
X120992147Y-92622000D01*
X124778287Y-92622000D01*
X124780000Y-93356500D01*
X124868500Y-93445000D01*
X125957000Y-93445000D01*
X125957000Y-92356500D01*
X126011000Y-92356500D01*
X126011000Y-93445000D01*
X127099500Y-93445000D01*
X127188000Y-93356500D01*
X127189713Y-92622000D01*
X127182878Y-92552604D01*
X127162636Y-92485875D01*
X127129765Y-92424376D01*
X127085527Y-92370473D01*
X127031624Y-92326235D01*
X126970125Y-92293364D01*
X126903396Y-92273122D01*
X126834000Y-92266287D01*
X126099500Y-92268000D01*
X126011000Y-92356500D01*
X125957000Y-92356500D01*
X125868500Y-92268000D01*
X125134000Y-92266287D01*
X125064604Y-92273122D01*
X124997875Y-92293364D01*
X124936376Y-92326235D01*
X124882473Y-92370473D01*
X124838235Y-92424376D01*
X124805364Y-92485875D01*
X124785122Y-92552604D01*
X124778287Y-92622000D01*
X120992147Y-92622000D01*
X120827673Y-92482318D01*
X120621421Y-92367566D01*
X120396745Y-92295257D01*
X120356967Y-92287346D01*
X120169000Y-92356827D01*
X120115000Y-92356827D01*
X119927033Y-92287346D01*
X119887255Y-92295257D01*
X119662579Y-92367566D01*
X119456327Y-92482318D01*
X119276425Y-92635103D01*
X119129786Y-92820049D01*
X119022046Y-93030049D01*
X118957345Y-93257033D01*
X118736392Y-93257033D01*
X118735360Y-93246561D01*
X118669602Y-93029785D01*
X118562816Y-92830003D01*
X118419107Y-92654893D01*
X118243997Y-92511184D01*
X118044215Y-92404398D01*
X117827439Y-92338640D01*
X117658492Y-92322000D01*
X117545508Y-92322000D01*
X117376561Y-92338640D01*
X117159785Y-92404398D01*
X116960003Y-92511184D01*
X116784893Y-92654893D01*
X116641184Y-92830003D01*
X116534398Y-93029785D01*
X116468640Y-93246561D01*
X116446436Y-93472000D01*
X116468640Y-93697439D01*
X116534398Y-93914215D01*
X116542879Y-93930081D01*
X116250959Y-94222001D01*
X115934179Y-94222001D01*
X116022816Y-94113997D01*
X116129602Y-93914215D01*
X116195360Y-93697439D01*
X116217564Y-93472000D01*
X116195360Y-93246561D01*
X116129602Y-93029785D01*
X116022816Y-92830003D01*
X115879107Y-92654893D01*
X115703997Y-92511184D01*
X115504215Y-92404398D01*
X115287439Y-92338640D01*
X115118492Y-92322000D01*
X115005508Y-92322000D01*
X114836561Y-92338640D01*
X114619785Y-92404398D01*
X114420003Y-92511184D01*
X114244893Y-92654893D01*
X114101184Y-92830003D01*
X113994398Y-93029785D01*
X113928640Y-93246561D01*
X113906436Y-93472000D01*
X113928640Y-93697439D01*
X113994398Y-93914215D01*
X114101184Y-94113997D01*
X114189821Y-94222001D01*
X112129865Y-94222001D01*
X112108998Y-94219946D01*
X112088131Y-94222001D01*
X112088125Y-94222001D01*
X112034097Y-94227322D01*
X112025684Y-94228151D01*
X112001382Y-94235523D01*
X111945572Y-94252453D01*
X111871739Y-94291917D01*
X111807025Y-94345027D01*
X111793720Y-94361239D01*
X110567960Y-95587000D01*
X109784824Y-95587000D01*
X109779602Y-95569785D01*
X109672816Y-95370003D01*
X109529107Y-95194893D01*
X109353997Y-95051184D01*
X109154215Y-94944398D01*
X108937439Y-94878640D01*
X108768492Y-94862000D01*
X108655508Y-94862000D01*
X108486561Y-94878640D01*
X108269785Y-94944398D01*
X108070003Y-95051184D01*
X107894893Y-95194893D01*
X107751184Y-95370003D01*
X107644398Y-95569785D01*
X107578640Y-95786561D01*
X107556436Y-96012000D01*
X107327564Y-96012000D01*
X107305360Y-95786561D01*
X107239602Y-95569785D01*
X107132816Y-95370003D01*
X106989107Y-95194893D01*
X106813997Y-95051184D01*
X106614215Y-94944398D01*
X106397439Y-94878640D01*
X106228492Y-94862000D01*
X106115508Y-94862000D01*
X105946561Y-94878640D01*
X105729785Y-94944398D01*
X105530003Y-95051184D01*
X105354893Y-95194893D01*
X105211184Y-95370003D01*
X105104398Y-95569785D01*
X105038640Y-95786561D01*
X105016436Y-96012000D01*
X102229000Y-96012000D01*
X102229000Y-93472000D01*
X105016436Y-93472000D01*
X105038640Y-93697439D01*
X105104398Y-93914215D01*
X105211184Y-94113997D01*
X105354893Y-94289107D01*
X105530003Y-94432816D01*
X105729785Y-94539602D01*
X105946561Y-94605360D01*
X106115508Y-94622000D01*
X106228492Y-94622000D01*
X106397439Y-94605360D01*
X106614215Y-94539602D01*
X106813997Y-94432816D01*
X106989107Y-94289107D01*
X107132816Y-94113997D01*
X107239602Y-93914215D01*
X107305360Y-93697439D01*
X107327564Y-93472000D01*
X107556436Y-93472000D01*
X107578640Y-93697439D01*
X107644398Y-93914215D01*
X107751184Y-94113997D01*
X107894893Y-94289107D01*
X108070003Y-94432816D01*
X108269785Y-94539602D01*
X108486561Y-94605360D01*
X108655508Y-94622000D01*
X108768492Y-94622000D01*
X108937439Y-94605360D01*
X109154215Y-94539602D01*
X109353997Y-94432816D01*
X109529107Y-94289107D01*
X109672816Y-94113997D01*
X109779602Y-93914215D01*
X109845360Y-93697439D01*
X109867564Y-93472000D01*
X109845360Y-93246561D01*
X109779602Y-93029785D01*
X109672816Y-92830003D01*
X109529107Y-92654893D01*
X109353997Y-92511184D01*
X109154215Y-92404398D01*
X108937439Y-92338640D01*
X108768492Y-92322000D01*
X108655508Y-92322000D01*
X108486561Y-92338640D01*
X108269785Y-92404398D01*
X108070003Y-92511184D01*
X107894893Y-92654893D01*
X107751184Y-92830003D01*
X107644398Y-93029785D01*
X107578640Y-93246561D01*
X107556436Y-93472000D01*
X107327564Y-93472000D01*
X107305360Y-93246561D01*
X107239602Y-93029785D01*
X107132816Y-92830003D01*
X106989107Y-92654893D01*
X106813997Y-92511184D01*
X106614215Y-92404398D01*
X106397439Y-92338640D01*
X106228492Y-92322000D01*
X106115508Y-92322000D01*
X105946561Y-92338640D01*
X105729785Y-92404398D01*
X105530003Y-92511184D01*
X105354893Y-92654893D01*
X105211184Y-92830003D01*
X105104398Y-93029785D01*
X105038640Y-93246561D01*
X105016436Y-93472000D01*
X102229000Y-93472000D01*
X102229000Y-92220339D01*
X102233297Y-92176519D01*
X102240699Y-92152002D01*
X102252720Y-92129392D01*
X102268903Y-92109551D01*
X102288632Y-92093230D01*
X102311158Y-92081050D01*
X102335617Y-92073479D01*
X102378227Y-92069000D01*
X132315661Y-92069000D01*
X132359481Y-92073297D01*
X132359481Y-92073297D01*
G37*
X132359481Y-92073297D02*
X132383998Y-92080699D01*
X132406608Y-92092720D01*
X132426449Y-92108903D01*
X132442770Y-92128632D01*
X132454950Y-92151158D01*
X132462521Y-92175617D01*
X132467001Y-92218236D01*
X132467000Y-114535661D01*
X132462703Y-114579480D01*
X132455301Y-114603998D01*
X132443280Y-114626608D01*
X132427096Y-114646450D01*
X132407370Y-114662769D01*
X132384842Y-114674950D01*
X132360380Y-114682522D01*
X132317775Y-114687000D01*
X112496926Y-114687000D01*
X112516636Y-114650125D01*
X112536878Y-114583396D01*
X112543713Y-114514000D01*
X112542000Y-112129500D01*
X112453500Y-112041000D01*
X107215000Y-112041000D01*
X107215000Y-112061000D01*
X107161000Y-112061000D01*
X107161000Y-112041000D01*
X107141000Y-112041000D01*
X107141000Y-111987000D01*
X107161000Y-111987000D01*
X107161000Y-109248500D01*
X107132500Y-109220000D01*
X107161000Y-109191500D01*
X107161000Y-106453000D01*
X107215000Y-106453000D01*
X107215000Y-109191500D01*
X107243500Y-109220000D01*
X107215000Y-109248500D01*
X107215000Y-111987000D01*
X112453500Y-111987000D01*
X112542000Y-111898500D01*
X112542829Y-110744000D01*
X122288436Y-110744000D01*
X122310640Y-110969439D01*
X122376398Y-111186215D01*
X122483184Y-111385997D01*
X122626893Y-111561107D01*
X122802003Y-111704816D01*
X123001785Y-111811602D01*
X123218561Y-111877360D01*
X123387508Y-111894000D01*
X123500492Y-111894000D01*
X123669439Y-111877360D01*
X123886215Y-111811602D01*
X124085997Y-111704816D01*
X124261107Y-111561107D01*
X124404816Y-111385997D01*
X124511602Y-111186215D01*
X124577360Y-110969439D01*
X124599564Y-110744000D01*
X124828436Y-110744000D01*
X124850640Y-110969439D01*
X124916398Y-111186215D01*
X125023184Y-111385997D01*
X125166893Y-111561107D01*
X125342003Y-111704816D01*
X125541785Y-111811602D01*
X125758561Y-111877360D01*
X125927508Y-111894000D01*
X126040492Y-111894000D01*
X126209439Y-111877360D01*
X126426215Y-111811602D01*
X126625997Y-111704816D01*
X126801107Y-111561107D01*
X126944816Y-111385997D01*
X127051602Y-111186215D01*
X127117360Y-110969439D01*
X127118391Y-110958967D01*
X127339346Y-110958967D01*
X127347257Y-110998745D01*
X127419566Y-111223421D01*
X127534318Y-111429673D01*
X127687103Y-111609575D01*
X127872049Y-111756214D01*
X128082049Y-111863954D01*
X128309033Y-111928655D01*
X128497000Y-111859198D01*
X128497000Y-110771000D01*
X128551000Y-110771000D01*
X128551000Y-111859198D01*
X128738967Y-111928655D01*
X128965951Y-111863954D01*
X129175951Y-111756214D01*
X129360897Y-111609575D01*
X129513682Y-111429673D01*
X129628434Y-111223421D01*
X129700743Y-110998745D01*
X129708654Y-110958967D01*
X129639173Y-110771000D01*
X128551000Y-110771000D01*
X128497000Y-110771000D01*
X127408827Y-110771000D01*
X127339346Y-110958967D01*
X127118391Y-110958967D01*
X127139564Y-110744000D01*
X127118392Y-110529033D01*
X127339346Y-110529033D01*
X127408827Y-110717000D01*
X128497000Y-110717000D01*
X128497000Y-109628802D01*
X128551000Y-109628802D01*
X128551000Y-110717000D01*
X129639173Y-110717000D01*
X129708654Y-110529033D01*
X129700743Y-110489255D01*
X129628434Y-110264579D01*
X129513682Y-110058327D01*
X129360897Y-109878425D01*
X129175951Y-109731786D01*
X128965951Y-109624046D01*
X128738967Y-109559345D01*
X128551000Y-109628802D01*
X128497000Y-109628802D01*
X128309033Y-109559345D01*
X128082049Y-109624046D01*
X127872049Y-109731786D01*
X127687103Y-109878425D01*
X127534318Y-110058327D01*
X127419566Y-110264579D01*
X127347257Y-110489255D01*
X127339346Y-110529033D01*
X127118392Y-110529033D01*
X127117360Y-110518561D01*
X127051602Y-110301785D01*
X126944816Y-110102003D01*
X126801107Y-109926893D01*
X126625997Y-109783184D01*
X126426215Y-109676398D01*
X126209439Y-109610640D01*
X126040492Y-109594000D01*
X125927508Y-109594000D01*
X125758561Y-109610640D01*
X125541785Y-109676398D01*
X125342003Y-109783184D01*
X125166893Y-109926893D01*
X125023184Y-110102003D01*
X124916398Y-110301785D01*
X124850640Y-110518561D01*
X124828436Y-110744000D01*
X124599564Y-110744000D01*
X124577360Y-110518561D01*
X124511602Y-110301785D01*
X124404816Y-110102003D01*
X124261107Y-109926893D01*
X124085997Y-109783184D01*
X123886215Y-109676398D01*
X123669439Y-109610640D01*
X123500492Y-109594000D01*
X123387508Y-109594000D01*
X123218561Y-109610640D01*
X123001785Y-109676398D01*
X122802003Y-109783184D01*
X122626893Y-109926893D01*
X122483184Y-110102003D01*
X122376398Y-110301785D01*
X122310640Y-110518561D01*
X122288436Y-110744000D01*
X112542829Y-110744000D01*
X112543713Y-109514000D01*
X112536878Y-109444604D01*
X112516636Y-109377875D01*
X112483765Y-109316376D01*
X112439527Y-109262473D01*
X112387775Y-109220000D01*
X112439527Y-109177527D01*
X112483765Y-109123624D01*
X112516636Y-109062125D01*
X112536878Y-108995396D01*
X112543713Y-108926000D01*
X112542000Y-106541500D01*
X112453500Y-106453000D01*
X107215000Y-106453000D01*
X107161000Y-106453000D01*
X107141000Y-106453000D01*
X107141000Y-106399000D01*
X107161000Y-106399000D01*
X107161000Y-103660500D01*
X107215000Y-103660500D01*
X107215000Y-106399000D01*
X112453500Y-106399000D01*
X112542000Y-106310500D01*
X112543713Y-103926000D01*
X112536878Y-103856604D01*
X112516636Y-103789875D01*
X112483765Y-103728376D01*
X112439527Y-103674473D01*
X112385624Y-103630235D01*
X112324125Y-103597364D01*
X112257396Y-103577122D01*
X112188000Y-103570287D01*
X107303500Y-103572000D01*
X107215000Y-103660500D01*
X107161000Y-103660500D01*
X107072500Y-103572000D01*
X102229000Y-103570301D01*
X102229000Y-101306967D01*
X104987346Y-101306967D01*
X104995257Y-101346745D01*
X105067566Y-101571421D01*
X105182318Y-101777673D01*
X105335103Y-101957575D01*
X105520049Y-102104214D01*
X105730049Y-102211954D01*
X105957033Y-102276655D01*
X106145000Y-102207198D01*
X106145000Y-101119000D01*
X106199000Y-101119000D01*
X106199000Y-102207198D01*
X106386967Y-102276655D01*
X106613951Y-102211954D01*
X106823951Y-102104214D01*
X107008897Y-101957575D01*
X107022124Y-101942000D01*
X107506287Y-101942000D01*
X107513122Y-102011396D01*
X107533364Y-102078125D01*
X107566235Y-102139624D01*
X107610473Y-102193527D01*
X107664376Y-102237765D01*
X107725875Y-102270636D01*
X107792604Y-102290878D01*
X107862000Y-102297713D01*
X108596500Y-102296000D01*
X108685000Y-102207500D01*
X108685000Y-101119000D01*
X108739000Y-101119000D01*
X108739000Y-102207500D01*
X108827500Y-102296000D01*
X109562000Y-102297713D01*
X109631396Y-102290878D01*
X109698125Y-102270636D01*
X109759624Y-102237765D01*
X109813527Y-102193527D01*
X109857765Y-102139624D01*
X109890636Y-102078125D01*
X109910878Y-102011396D01*
X109917713Y-101942000D01*
X109916000Y-101207500D01*
X109827500Y-101119000D01*
X108739000Y-101119000D01*
X108685000Y-101119000D01*
X107596500Y-101119000D01*
X107508000Y-101207500D01*
X107506287Y-101942000D01*
X107022124Y-101942000D01*
X107161682Y-101777673D01*
X107276434Y-101571421D01*
X107348743Y-101346745D01*
X107356654Y-101306967D01*
X107287173Y-101119000D01*
X106199000Y-101119000D01*
X106145000Y-101119000D01*
X105056827Y-101119000D01*
X104987346Y-101306967D01*
X102229000Y-101306967D01*
X102229000Y-100877033D01*
X104987346Y-100877033D01*
X105056827Y-101065000D01*
X106145000Y-101065000D01*
X106145000Y-99976802D01*
X106199000Y-99976802D01*
X106199000Y-101065000D01*
X107287173Y-101065000D01*
X107356654Y-100877033D01*
X107348743Y-100837255D01*
X107276434Y-100612579D01*
X107161682Y-100406327D01*
X107022125Y-100242000D01*
X107506287Y-100242000D01*
X107508000Y-100976500D01*
X107596500Y-101065000D01*
X108685000Y-101065000D01*
X108685000Y-99976500D01*
X108739000Y-99976500D01*
X108739000Y-101065000D01*
X109827500Y-101065000D01*
X109916000Y-100976500D01*
X109917713Y-100242000D01*
X109910878Y-100172604D01*
X109890636Y-100105875D01*
X109857765Y-100044376D01*
X109813527Y-99990473D01*
X109759624Y-99946235D01*
X109698125Y-99913364D01*
X109631396Y-99893122D01*
X109562000Y-99886287D01*
X108827500Y-99888000D01*
X108739000Y-99976500D01*
X108685000Y-99976500D01*
X108596500Y-99888000D01*
X107862000Y-99886287D01*
X107792604Y-99893122D01*
X107725875Y-99913364D01*
X107664376Y-99946235D01*
X107610473Y-99990473D01*
X107566235Y-100044376D01*
X107533364Y-100105875D01*
X107513122Y-100172604D01*
X107506287Y-100242000D01*
X107022125Y-100242000D01*
X107008897Y-100226425D01*
X106823951Y-100079786D01*
X106613951Y-99972046D01*
X106386967Y-99907345D01*
X106199000Y-99976802D01*
X106145000Y-99976802D01*
X105957033Y-99907345D01*
X105730049Y-99972046D01*
X105520049Y-100079786D01*
X105335103Y-100226425D01*
X105182318Y-100406327D01*
X105067566Y-100612579D01*
X104995257Y-100837255D01*
X104987346Y-100877033D01*
X102229000Y-100877033D01*
X102229000Y-98552000D01*
X105016436Y-98552000D01*
X105038640Y-98777439D01*
X105104398Y-98994215D01*
X105211184Y-99193997D01*
X105354893Y-99369107D01*
X105530003Y-99512816D01*
X105729785Y-99619602D01*
X105946561Y-99685360D01*
X106115508Y-99702000D01*
X106228492Y-99702000D01*
X106397439Y-99685360D01*
X106614215Y-99619602D01*
X106813997Y-99512816D01*
X106989107Y-99369107D01*
X107132816Y-99193997D01*
X107239602Y-98994215D01*
X107305360Y-98777439D01*
X107327564Y-98552000D01*
X107556436Y-98552000D01*
X107578640Y-98777439D01*
X107644398Y-98994215D01*
X107751184Y-99193997D01*
X107894893Y-99369107D01*
X108070003Y-99512816D01*
X108269785Y-99619602D01*
X108486561Y-99685360D01*
X108655508Y-99702000D01*
X108768492Y-99702000D01*
X108937439Y-99685360D01*
X109154215Y-99619602D01*
X109353997Y-99512816D01*
X109529107Y-99369107D01*
X109672816Y-99193997D01*
X109779602Y-98994215D01*
X109845360Y-98777439D01*
X109867564Y-98552000D01*
X109845360Y-98326561D01*
X109779602Y-98109785D01*
X109672816Y-97910003D01*
X109529107Y-97734893D01*
X109353997Y-97591184D01*
X109154215Y-97484398D01*
X108937439Y-97418640D01*
X108768492Y-97402000D01*
X108655508Y-97402000D01*
X108486561Y-97418640D01*
X108269785Y-97484398D01*
X108070003Y-97591184D01*
X107894893Y-97734893D01*
X107751184Y-97910003D01*
X107644398Y-98109785D01*
X107578640Y-98326561D01*
X107556436Y-98552000D01*
X107327564Y-98552000D01*
X107305360Y-98326561D01*
X107239602Y-98109785D01*
X107132816Y-97910003D01*
X106989107Y-97734893D01*
X106813997Y-97591184D01*
X106614215Y-97484398D01*
X106397439Y-97418640D01*
X106228492Y-97402000D01*
X106115508Y-97402000D01*
X105946561Y-97418640D01*
X105729785Y-97484398D01*
X105530003Y-97591184D01*
X105354893Y-97734893D01*
X105211184Y-97910003D01*
X105104398Y-98109785D01*
X105038640Y-98326561D01*
X105016436Y-98552000D01*
X102229000Y-98552000D01*
X102229000Y-96012000D01*
X105016436Y-96012000D01*
X105038640Y-96237439D01*
X105104398Y-96454215D01*
X105211184Y-96653997D01*
X105354893Y-96829107D01*
X105530003Y-96972816D01*
X105729785Y-97079602D01*
X105946561Y-97145360D01*
X106115508Y-97162000D01*
X106228492Y-97162000D01*
X106397439Y-97145360D01*
X106614215Y-97079602D01*
X106813997Y-96972816D01*
X106989107Y-96829107D01*
X107132816Y-96653997D01*
X107239602Y-96454215D01*
X107305360Y-96237439D01*
X107327564Y-96012000D01*
X107556436Y-96012000D01*
X107578640Y-96237439D01*
X107644398Y-96454215D01*
X107751184Y-96653997D01*
X107894893Y-96829107D01*
X108070003Y-96972816D01*
X108269785Y-97079602D01*
X108486561Y-97145360D01*
X108655508Y-97162000D01*
X108768492Y-97162000D01*
X108937439Y-97145360D01*
X109154215Y-97079602D01*
X109353997Y-96972816D01*
X109529107Y-96829107D01*
X109672816Y-96653997D01*
X109779602Y-96454215D01*
X109784824Y-96437000D01*
X110723133Y-96437000D01*
X110744000Y-96439055D01*
X110764867Y-96437000D01*
X110764874Y-96437000D01*
X110827314Y-96430850D01*
X110907427Y-96406548D01*
X110981260Y-96367084D01*
X111045974Y-96313974D01*
X111059283Y-96297757D01*
X112285040Y-95072001D01*
X113925802Y-95072001D01*
X113916341Y-95103190D01*
X113910549Y-95162000D01*
X113910549Y-96862000D01*
X113916341Y-96920810D01*
X113933496Y-96977360D01*
X113961353Y-97029477D01*
X113998842Y-97075158D01*
X114044523Y-97112647D01*
X114096640Y-97140504D01*
X114153190Y-97157659D01*
X114212000Y-97163451D01*
X114637001Y-97163451D01*
X114637000Y-109453133D01*
X114634945Y-109474000D01*
X114637000Y-109494867D01*
X114637000Y-109494873D01*
X114638884Y-109514000D01*
X114643150Y-109557314D01*
X114650522Y-109581616D01*
X114667452Y-109637426D01*
X114706916Y-109711259D01*
X114760026Y-109775974D01*
X114776243Y-109789283D01*
X115254721Y-110267762D01*
X115268026Y-110283974D01*
X115284238Y-110297279D01*
X115284239Y-110297280D01*
X115304093Y-110313574D01*
X115332740Y-110337084D01*
X115406573Y-110376548D01*
X115462383Y-110393478D01*
X115486685Y-110400850D01*
X115495098Y-110401679D01*
X115549126Y-110407000D01*
X115549132Y-110407000D01*
X115569999Y-110409055D01*
X115590866Y-110407000D01*
X116536093Y-110407000D01*
X116550274Y-110428224D01*
X116647776Y-110525726D01*
X116762426Y-110602332D01*
X116889818Y-110655099D01*
X117025056Y-110682000D01*
X117162944Y-110682000D01*
X117298182Y-110655099D01*
X117425574Y-110602332D01*
X117540224Y-110525726D01*
X117637726Y-110428224D01*
X117714332Y-110313574D01*
X117767099Y-110186182D01*
X117794000Y-110050944D01*
X117794000Y-109913056D01*
X117767099Y-109777818D01*
X117714332Y-109650426D01*
X117637726Y-109535776D01*
X117540224Y-109438274D01*
X117425574Y-109361668D01*
X117298182Y-109308901D01*
X117162944Y-109282000D01*
X117025056Y-109282000D01*
X116889818Y-109308901D01*
X116762426Y-109361668D01*
X116647776Y-109438274D01*
X116550274Y-109535776D01*
X116536093Y-109557000D01*
X115746041Y-109557000D01*
X115487000Y-109297960D01*
X115487000Y-105518706D01*
X115492426Y-105522332D01*
X115619818Y-105575099D01*
X115755056Y-105602000D01*
X115892944Y-105602000D01*
X116028182Y-105575099D01*
X116155574Y-105522332D01*
X116270224Y-105445726D01*
X116367726Y-105348224D01*
X116381907Y-105327000D01*
X118851133Y-105327000D01*
X118872000Y-105329055D01*
X118892867Y-105327000D01*
X118892874Y-105327000D01*
X118955314Y-105320850D01*
X119035427Y-105296548D01*
X119109260Y-105257084D01*
X119173974Y-105203974D01*
X119187284Y-105187757D01*
X122967763Y-101407278D01*
X122983974Y-101393974D01*
X123037084Y-101329260D01*
X123076548Y-101255427D01*
X123100850Y-101175314D01*
X123107000Y-101112874D01*
X123107000Y-101112867D01*
X123109055Y-101092000D01*
X123107000Y-101071133D01*
X123107000Y-99236040D01*
X123366041Y-98977000D01*
X124911176Y-98977000D01*
X124916398Y-98994215D01*
X125023184Y-99193997D01*
X125166893Y-99369107D01*
X125342003Y-99512816D01*
X125541785Y-99619602D01*
X125758561Y-99685360D01*
X125927508Y-99702000D01*
X126040492Y-99702000D01*
X126209439Y-99685360D01*
X126426215Y-99619602D01*
X126625997Y-99512816D01*
X126801107Y-99369107D01*
X126924000Y-99219362D01*
X126924000Y-99550959D01*
X124455045Y-102019915D01*
X124409360Y-101995496D01*
X124352810Y-101978341D01*
X124294000Y-101972549D01*
X122594000Y-101972549D01*
X122535190Y-101978341D01*
X122478640Y-101995496D01*
X122426523Y-102023353D01*
X122380842Y-102060842D01*
X122343353Y-102106523D01*
X122315496Y-102158640D01*
X122298341Y-102215190D01*
X122292549Y-102274000D01*
X122292549Y-103974000D01*
X122298341Y-104032810D01*
X122315496Y-104089360D01*
X122343353Y-104141477D01*
X122380842Y-104187158D01*
X122426523Y-104224647D01*
X122478640Y-104252504D01*
X122535190Y-104269659D01*
X122594000Y-104275451D01*
X124289000Y-104275451D01*
X124289001Y-104880881D01*
X124261107Y-104846893D01*
X124085997Y-104703184D01*
X123886215Y-104596398D01*
X123669439Y-104530640D01*
X123500492Y-104514000D01*
X123387508Y-104514000D01*
X123218561Y-104530640D01*
X123001785Y-104596398D01*
X122802003Y-104703184D01*
X122626893Y-104846893D01*
X122483184Y-105022003D01*
X122376398Y-105221785D01*
X122310640Y-105438561D01*
X122288436Y-105664000D01*
X122310640Y-105889439D01*
X122376398Y-106106215D01*
X122483184Y-106305997D01*
X122626893Y-106481107D01*
X122660881Y-106509000D01*
X120670867Y-106509000D01*
X120650000Y-106506945D01*
X120629133Y-106509000D01*
X120629126Y-106509000D01*
X120566686Y-106515150D01*
X120486572Y-106539452D01*
X120482741Y-106541500D01*
X120412740Y-106578916D01*
X120348026Y-106632026D01*
X120334721Y-106648238D01*
X118695960Y-108287000D01*
X116889907Y-108287000D01*
X116875726Y-108265776D01*
X116778224Y-108168274D01*
X116663574Y-108091668D01*
X116536182Y-108038901D01*
X116400944Y-108012000D01*
X116263056Y-108012000D01*
X116127818Y-108038901D01*
X116000426Y-108091668D01*
X115885776Y-108168274D01*
X115788274Y-108265776D01*
X115711668Y-108380426D01*
X115658901Y-108507818D01*
X115632000Y-108643056D01*
X115632000Y-108780944D01*
X115658901Y-108916182D01*
X115711668Y-109043574D01*
X115788274Y-109158224D01*
X115885776Y-109255726D01*
X116000426Y-109332332D01*
X116127818Y-109385099D01*
X116263056Y-109412000D01*
X116400944Y-109412000D01*
X116536182Y-109385099D01*
X116663574Y-109332332D01*
X116778224Y-109255726D01*
X116875726Y-109158224D01*
X116889907Y-109137000D01*
X118851133Y-109137000D01*
X118872000Y-109139055D01*
X118892867Y-109137000D01*
X118892874Y-109137000D01*
X118955314Y-109130850D01*
X119035427Y-109106548D01*
X119109260Y-109067084D01*
X119173974Y-109013974D01*
X119187283Y-108997757D01*
X120826041Y-107359000D01*
X122660881Y-107359000D01*
X122626893Y-107386893D01*
X122483184Y-107562003D01*
X122376398Y-107761785D01*
X122310640Y-107978561D01*
X122288436Y-108204000D01*
X122310640Y-108429439D01*
X122376398Y-108646215D01*
X122483184Y-108845997D01*
X122626893Y-109021107D01*
X122802003Y-109164816D01*
X123001785Y-109271602D01*
X123218561Y-109337360D01*
X123387508Y-109354000D01*
X123500492Y-109354000D01*
X123669439Y-109337360D01*
X123886215Y-109271602D01*
X124085997Y-109164816D01*
X124261107Y-109021107D01*
X124404816Y-108845997D01*
X124511602Y-108646215D01*
X124577360Y-108429439D01*
X124599564Y-108204000D01*
X124828436Y-108204000D01*
X124850640Y-108429439D01*
X124916398Y-108646215D01*
X125023184Y-108845997D01*
X125166893Y-109021107D01*
X125342003Y-109164816D01*
X125541785Y-109271602D01*
X125758561Y-109337360D01*
X125927508Y-109354000D01*
X126040492Y-109354000D01*
X126209439Y-109337360D01*
X126426215Y-109271602D01*
X126625997Y-109164816D01*
X126801107Y-109021107D01*
X126944816Y-108845997D01*
X127051602Y-108646215D01*
X127117360Y-108429439D01*
X127118391Y-108418967D01*
X127339346Y-108418967D01*
X127347257Y-108458745D01*
X127419566Y-108683421D01*
X127534318Y-108889673D01*
X127687103Y-109069575D01*
X127872049Y-109216214D01*
X128082049Y-109323954D01*
X128309033Y-109388655D01*
X128497000Y-109319198D01*
X128497000Y-108231000D01*
X128551000Y-108231000D01*
X128551000Y-109319198D01*
X128738967Y-109388655D01*
X128965951Y-109323954D01*
X129175951Y-109216214D01*
X129360897Y-109069575D01*
X129513682Y-108889673D01*
X129628434Y-108683421D01*
X129700743Y-108458745D01*
X129708654Y-108418967D01*
X129639173Y-108231000D01*
X128551000Y-108231000D01*
X128497000Y-108231000D01*
X127408827Y-108231000D01*
X127339346Y-108418967D01*
X127118391Y-108418967D01*
X127139564Y-108204000D01*
X127118392Y-107989033D01*
X127339346Y-107989033D01*
X127408827Y-108177000D01*
X128497000Y-108177000D01*
X128497000Y-107088802D01*
X128551000Y-107088802D01*
X128551000Y-108177000D01*
X129639173Y-108177000D01*
X129708654Y-107989033D01*
X129700743Y-107949255D01*
X129628434Y-107724579D01*
X129513682Y-107518327D01*
X129360897Y-107338425D01*
X129175951Y-107191786D01*
X128965951Y-107084046D01*
X128738967Y-107019345D01*
X128551000Y-107088802D01*
X128497000Y-107088802D01*
X128309033Y-107019345D01*
X128082049Y-107084046D01*
X127872049Y-107191786D01*
X127687103Y-107338425D01*
X127534318Y-107518327D01*
X127419566Y-107724579D01*
X127347257Y-107949255D01*
X127339346Y-107989033D01*
X127118392Y-107989033D01*
X127117360Y-107978561D01*
X127051602Y-107761785D01*
X126944816Y-107562003D01*
X126801107Y-107386893D01*
X126625997Y-107243184D01*
X126426215Y-107136398D01*
X126209439Y-107070640D01*
X126040492Y-107054000D01*
X125927508Y-107054000D01*
X125758561Y-107070640D01*
X125541785Y-107136398D01*
X125342003Y-107243184D01*
X125166893Y-107386893D01*
X125023184Y-107562003D01*
X124916398Y-107761785D01*
X124850640Y-107978561D01*
X124828436Y-108204000D01*
X124599564Y-108204000D01*
X124577360Y-107978561D01*
X124511602Y-107761785D01*
X124404816Y-107562003D01*
X124261107Y-107386893D01*
X124227093Y-107358978D01*
X124289314Y-107352850D01*
X124369427Y-107328548D01*
X124443260Y-107289084D01*
X124507974Y-107235974D01*
X124521283Y-107219757D01*
X124999762Y-106741279D01*
X125015974Y-106727974D01*
X125069084Y-106663260D01*
X125108548Y-106589427D01*
X125132850Y-106509314D01*
X125138978Y-106447093D01*
X125166893Y-106481107D01*
X125342003Y-106624816D01*
X125541785Y-106731602D01*
X125758561Y-106797360D01*
X125927508Y-106814000D01*
X126040492Y-106814000D01*
X126209439Y-106797360D01*
X126426215Y-106731602D01*
X126625997Y-106624816D01*
X126801107Y-106481107D01*
X126944816Y-106305997D01*
X127051602Y-106106215D01*
X127117360Y-105889439D01*
X127118391Y-105878967D01*
X127339346Y-105878967D01*
X127347257Y-105918745D01*
X127419566Y-106143421D01*
X127534318Y-106349673D01*
X127687103Y-106529575D01*
X127872049Y-106676214D01*
X128082049Y-106783954D01*
X128309033Y-106848655D01*
X128497000Y-106779198D01*
X128497000Y-105691000D01*
X128551000Y-105691000D01*
X128551000Y-106779198D01*
X128738967Y-106848655D01*
X128965951Y-106783954D01*
X129175951Y-106676214D01*
X129360897Y-106529575D01*
X129513682Y-106349673D01*
X129628434Y-106143421D01*
X129700743Y-105918745D01*
X129708654Y-105878967D01*
X129639173Y-105691000D01*
X128551000Y-105691000D01*
X128497000Y-105691000D01*
X127408827Y-105691000D01*
X127339346Y-105878967D01*
X127118391Y-105878967D01*
X127139564Y-105664000D01*
X127118392Y-105449033D01*
X127339346Y-105449033D01*
X127408827Y-105637000D01*
X128497000Y-105637000D01*
X128497000Y-104548802D01*
X128551000Y-104548802D01*
X128551000Y-105637000D01*
X129639173Y-105637000D01*
X129708654Y-105449033D01*
X129700743Y-105409255D01*
X129628434Y-105184579D01*
X129513682Y-104978327D01*
X129360897Y-104798425D01*
X129175951Y-104651786D01*
X128965951Y-104544046D01*
X128738967Y-104479345D01*
X128551000Y-104548802D01*
X128497000Y-104548802D01*
X128309033Y-104479345D01*
X128082049Y-104544046D01*
X127872049Y-104651786D01*
X127687103Y-104798425D01*
X127534318Y-104978327D01*
X127419566Y-105184579D01*
X127347257Y-105409255D01*
X127339346Y-105449033D01*
X127118392Y-105449033D01*
X127117360Y-105438561D01*
X127051602Y-105221785D01*
X126944816Y-105022003D01*
X126801107Y-104846893D01*
X126625997Y-104703184D01*
X126426215Y-104596398D01*
X126209439Y-104530640D01*
X126040492Y-104514000D01*
X125927508Y-104514000D01*
X125758561Y-104530640D01*
X125541785Y-104596398D01*
X125342003Y-104703184D01*
X125166893Y-104846893D01*
X125139000Y-104880881D01*
X125139000Y-103907119D01*
X125166893Y-103941107D01*
X125342003Y-104084816D01*
X125541785Y-104191602D01*
X125758561Y-104257360D01*
X125927508Y-104274000D01*
X126040492Y-104274000D01*
X126209439Y-104257360D01*
X126426215Y-104191602D01*
X126625997Y-104084816D01*
X126801107Y-103941107D01*
X126944816Y-103765997D01*
X127051602Y-103566215D01*
X127117360Y-103349439D01*
X127118391Y-103338967D01*
X127339346Y-103338967D01*
X127347257Y-103378745D01*
X127419566Y-103603421D01*
X127534318Y-103809673D01*
X127687103Y-103989575D01*
X127872049Y-104136214D01*
X128082049Y-104243954D01*
X128309033Y-104308655D01*
X128497000Y-104239198D01*
X128497000Y-103151000D01*
X128551000Y-103151000D01*
X128551000Y-104239198D01*
X128738967Y-104308655D01*
X128965951Y-104243954D01*
X129175951Y-104136214D01*
X129360897Y-103989575D01*
X129513682Y-103809673D01*
X129628434Y-103603421D01*
X129700743Y-103378745D01*
X129708654Y-103338967D01*
X129639173Y-103151000D01*
X128551000Y-103151000D01*
X128497000Y-103151000D01*
X127408827Y-103151000D01*
X127339346Y-103338967D01*
X127118391Y-103338967D01*
X127139564Y-103124000D01*
X127118392Y-102909033D01*
X127339346Y-102909033D01*
X127408827Y-103097000D01*
X128497000Y-103097000D01*
X128497000Y-102008802D01*
X128551000Y-102008802D01*
X128551000Y-103097000D01*
X129639173Y-103097000D01*
X129708654Y-102909033D01*
X129700743Y-102869255D01*
X129628434Y-102644579D01*
X129513682Y-102438327D01*
X129360897Y-102258425D01*
X129175951Y-102111786D01*
X128965951Y-102004046D01*
X128738967Y-101939345D01*
X128551000Y-102008802D01*
X128497000Y-102008802D01*
X128309033Y-101939345D01*
X128082049Y-102004046D01*
X127872049Y-102111786D01*
X127687103Y-102258425D01*
X127534318Y-102438327D01*
X127419566Y-102644579D01*
X127347257Y-102869255D01*
X127339346Y-102909033D01*
X127118392Y-102909033D01*
X127117360Y-102898561D01*
X127051602Y-102681785D01*
X126944816Y-102482003D01*
X126801107Y-102306893D01*
X126625997Y-102163184D01*
X126426215Y-102056398D01*
X126209439Y-101990640D01*
X126040492Y-101974000D01*
X125927508Y-101974000D01*
X125758561Y-101990640D01*
X125654979Y-102022061D01*
X127634761Y-100042280D01*
X127650973Y-100028975D01*
X127704083Y-99964261D01*
X127743547Y-99890428D01*
X127767849Y-99810315D01*
X127773999Y-99747875D01*
X127773999Y-99747869D01*
X127776054Y-99727002D01*
X127773999Y-99706135D01*
X127773999Y-99424179D01*
X127882003Y-99512816D01*
X128081785Y-99619602D01*
X128298561Y-99685360D01*
X128467508Y-99702000D01*
X128580492Y-99702000D01*
X128749439Y-99685360D01*
X128966215Y-99619602D01*
X129165997Y-99512816D01*
X129341107Y-99369107D01*
X129484816Y-99193997D01*
X129591602Y-98994215D01*
X129657360Y-98777439D01*
X129679564Y-98552000D01*
X129657360Y-98326561D01*
X129591602Y-98109785D01*
X129484816Y-97910003D01*
X129341107Y-97734893D01*
X129165997Y-97591184D01*
X128966215Y-97484398D01*
X128749439Y-97418640D01*
X128580492Y-97402000D01*
X128467508Y-97402000D01*
X128298561Y-97418640D01*
X128081785Y-97484398D01*
X127882003Y-97591184D01*
X127773999Y-97679821D01*
X127773999Y-97363041D01*
X128065919Y-97071121D01*
X128081785Y-97079602D01*
X128298561Y-97145360D01*
X128467508Y-97162000D01*
X128580492Y-97162000D01*
X128749439Y-97145360D01*
X128966215Y-97079602D01*
X129165997Y-96972816D01*
X129341107Y-96829107D01*
X129484816Y-96653997D01*
X129591602Y-96454215D01*
X129657360Y-96237439D01*
X129679564Y-96012000D01*
X129657360Y-95786561D01*
X129591602Y-95569785D01*
X129484816Y-95370003D01*
X129341107Y-95194893D01*
X129165997Y-95051184D01*
X128966215Y-94944398D01*
X128749439Y-94878640D01*
X128580492Y-94862000D01*
X128467508Y-94862000D01*
X128298561Y-94878640D01*
X128081785Y-94944398D01*
X127882003Y-95051184D01*
X127706893Y-95194893D01*
X127563184Y-95370003D01*
X127456398Y-95569785D01*
X127390640Y-95786561D01*
X127368436Y-96012000D01*
X127390640Y-96237439D01*
X127456398Y-96454215D01*
X127464879Y-96470081D01*
X127063242Y-96871718D01*
X127047025Y-96885027D01*
X126993915Y-96949742D01*
X126954451Y-97023575D01*
X126930149Y-97103688D01*
X126923999Y-97166128D01*
X126923999Y-97166134D01*
X126921944Y-97187001D01*
X126923999Y-97207868D01*
X126923999Y-97884638D01*
X126801107Y-97734893D01*
X126625997Y-97591184D01*
X126426215Y-97484398D01*
X126209439Y-97418640D01*
X126040492Y-97402000D01*
X125927508Y-97402000D01*
X125758561Y-97418640D01*
X125541785Y-97484398D01*
X125342003Y-97591184D01*
X125166893Y-97734893D01*
X125023184Y-97910003D01*
X124916398Y-98109785D01*
X124911176Y-98127000D01*
X123210866Y-98127000D01*
X123189999Y-98124945D01*
X123169132Y-98127000D01*
X123169126Y-98127000D01*
X123115098Y-98132321D01*
X123106685Y-98133150D01*
X123082383Y-98140522D01*
X123026573Y-98157452D01*
X122952740Y-98196916D01*
X122888026Y-98250026D01*
X122874721Y-98266238D01*
X122396239Y-98744721D01*
X122380027Y-98758026D01*
X122326917Y-98822740D01*
X122287453Y-98896573D01*
X122263150Y-98976686D01*
X122254945Y-99060000D01*
X122257001Y-99080877D01*
X122257000Y-100915959D01*
X118695960Y-104477000D01*
X116381907Y-104477000D01*
X116367726Y-104455776D01*
X116270224Y-104358274D01*
X116155574Y-104281668D01*
X116028182Y-104228901D01*
X115892944Y-104202000D01*
X115755056Y-104202000D01*
X115619818Y-104228901D01*
X115492426Y-104281668D01*
X115487000Y-104285294D01*
X115487000Y-103563056D01*
X115886000Y-103563056D01*
X115886000Y-103700944D01*
X115912901Y-103836182D01*
X115965668Y-103963574D01*
X116042274Y-104078224D01*
X116139776Y-104175726D01*
X116254426Y-104252332D01*
X116381818Y-104305099D01*
X116517056Y-104332000D01*
X116654944Y-104332000D01*
X116790182Y-104305099D01*
X116917574Y-104252332D01*
X117032224Y-104175726D01*
X117129726Y-104078224D01*
X117143907Y-104057000D01*
X118851133Y-104057000D01*
X118872000Y-104059055D01*
X118892867Y-104057000D01*
X118892874Y-104057000D01*
X118955314Y-104050850D01*
X119035427Y-104026548D01*
X119109260Y-103987084D01*
X119173974Y-103933974D01*
X119187283Y-103917757D01*
X121951763Y-101153278D01*
X121967974Y-101139974D01*
X122021084Y-101075260D01*
X122056668Y-101008686D01*
X122060548Y-101001428D01*
X122084850Y-100921314D01*
X122089211Y-100877033D01*
X122091000Y-100858874D01*
X122091000Y-100858867D01*
X122093055Y-100838000D01*
X122091000Y-100817133D01*
X122091000Y-95680040D01*
X122509042Y-95261999D01*
X125111821Y-95261999D01*
X125023184Y-95370003D01*
X124916398Y-95569785D01*
X124850640Y-95786561D01*
X124828436Y-96012000D01*
X124850640Y-96237439D01*
X124916398Y-96454215D01*
X125023184Y-96653997D01*
X125166893Y-96829107D01*
X125342003Y-96972816D01*
X125541785Y-97079602D01*
X125758561Y-97145360D01*
X125927508Y-97162000D01*
X126040492Y-97162000D01*
X126209439Y-97145360D01*
X126426215Y-97079602D01*
X126625997Y-96972816D01*
X126801107Y-96829107D01*
X126944816Y-96653997D01*
X127051602Y-96454215D01*
X127117360Y-96237439D01*
X127139564Y-96012000D01*
X127117360Y-95786561D01*
X127051602Y-95569785D01*
X126944816Y-95370003D01*
X126856179Y-95261999D01*
X127138134Y-95261999D01*
X127159001Y-95264054D01*
X127179868Y-95261999D01*
X127179875Y-95261999D01*
X127242315Y-95255849D01*
X127322428Y-95231547D01*
X127396261Y-95192083D01*
X127460975Y-95138973D01*
X127474284Y-95122756D01*
X128065919Y-94531121D01*
X128081785Y-94539602D01*
X128298561Y-94605360D01*
X128467508Y-94622000D01*
X128580492Y-94622000D01*
X128749439Y-94605360D01*
X128966215Y-94539602D01*
X129165997Y-94432816D01*
X129341107Y-94289107D01*
X129484816Y-94113997D01*
X129591602Y-93914215D01*
X129657360Y-93697439D01*
X129679564Y-93472000D01*
X129657360Y-93246561D01*
X129591602Y-93029785D01*
X129484816Y-92830003D01*
X129341107Y-92654893D01*
X129165997Y-92511184D01*
X128966215Y-92404398D01*
X128749439Y-92338640D01*
X128580492Y-92322000D01*
X128467508Y-92322000D01*
X128298561Y-92338640D01*
X128081785Y-92404398D01*
X127882003Y-92511184D01*
X127706893Y-92654893D01*
X127563184Y-92830003D01*
X127456398Y-93029785D01*
X127390640Y-93246561D01*
X127368436Y-93472000D01*
X127390640Y-93697439D01*
X127456398Y-93914215D01*
X127464879Y-93930081D01*
X127189441Y-94205518D01*
X127188000Y-93587500D01*
X127099500Y-93499000D01*
X126011000Y-93499000D01*
X126011000Y-93519000D01*
X125957000Y-93519000D01*
X125957000Y-93499000D01*
X124868500Y-93499000D01*
X124780000Y-93587500D01*
X124778287Y-94322000D01*
X124785122Y-94391396D01*
X124791372Y-94411999D01*
X122353868Y-94411999D01*
X122333001Y-94409944D01*
X122312134Y-94411999D01*
X122312127Y-94411999D01*
X122257328Y-94417396D01*
X122249686Y-94418149D01*
X122169573Y-94442451D01*
X122143856Y-94456198D01*
X122095741Y-94481915D01*
X122031027Y-94535025D01*
X122017722Y-94551237D01*
X121380239Y-95188721D01*
X121364027Y-95202026D01*
X121310917Y-95266740D01*
X121271453Y-95340573D01*
X121247150Y-95420686D01*
X121238945Y-95504000D01*
X121241001Y-95524877D01*
X121241001Y-95673294D01*
X121209602Y-95569785D01*
X121102816Y-95370003D01*
X120959107Y-95194893D01*
X120783997Y-95051184D01*
X120584215Y-94944398D01*
X120367439Y-94878640D01*
X120198492Y-94862000D01*
X120085508Y-94862000D01*
X119916561Y-94878640D01*
X119699785Y-94944398D01*
X119500003Y-95051184D01*
X119324893Y-95194893D01*
X119181184Y-95370003D01*
X119074398Y-95569785D01*
X119008640Y-95786561D01*
X118986436Y-96012000D01*
X119008640Y-96237439D01*
X119074398Y-96454215D01*
X119181184Y-96653997D01*
X119324893Y-96829107D01*
X119500003Y-96972816D01*
X119699785Y-97079602D01*
X119916561Y-97145360D01*
X120085508Y-97162000D01*
X120198492Y-97162000D01*
X120367439Y-97145360D01*
X120584215Y-97079602D01*
X120783997Y-96972816D01*
X120959107Y-96829107D01*
X121102816Y-96653997D01*
X121209602Y-96454215D01*
X121241001Y-96350706D01*
X121241000Y-100661959D01*
X118695960Y-103207000D01*
X117143907Y-103207000D01*
X117129726Y-103185776D01*
X117032224Y-103088274D01*
X116917574Y-103011668D01*
X116790182Y-102958901D01*
X116654944Y-102932000D01*
X116517056Y-102932000D01*
X116381818Y-102958901D01*
X116254426Y-103011668D01*
X116139776Y-103088274D01*
X116042274Y-103185776D01*
X115965668Y-103300426D01*
X115912901Y-103427818D01*
X115886000Y-103563056D01*
X115487000Y-103563056D01*
X115487000Y-97163451D01*
X115912000Y-97163451D01*
X115970810Y-97157659D01*
X116027360Y-97140504D01*
X116079477Y-97112647D01*
X116125158Y-97075158D01*
X116162647Y-97029477D01*
X116190504Y-96977360D01*
X116207659Y-96920810D01*
X116213451Y-96862000D01*
X116213451Y-96012000D01*
X116446436Y-96012000D01*
X116468640Y-96237439D01*
X116534398Y-96454215D01*
X116641184Y-96653997D01*
X116784893Y-96829107D01*
X116960003Y-96972816D01*
X117159785Y-97079602D01*
X117376561Y-97145360D01*
X117545508Y-97162000D01*
X117658492Y-97162000D01*
X117827439Y-97145360D01*
X118044215Y-97079602D01*
X118243997Y-96972816D01*
X118419107Y-96829107D01*
X118562816Y-96653997D01*
X118669602Y-96454215D01*
X118735360Y-96237439D01*
X118757564Y-96012000D01*
X118735360Y-95786561D01*
X118669602Y-95569785D01*
X118562816Y-95370003D01*
X118419107Y-95194893D01*
X118243997Y-95051184D01*
X118044215Y-94944398D01*
X117827439Y-94878640D01*
X117658492Y-94862000D01*
X117545508Y-94862000D01*
X117376561Y-94878640D01*
X117159785Y-94944398D01*
X116960003Y-95051184D01*
X116784893Y-95194893D01*
X116641184Y-95370003D01*
X116534398Y-95569785D01*
X116468640Y-95786561D01*
X116446436Y-96012000D01*
X116213451Y-96012000D01*
X116213451Y-95162000D01*
X116207659Y-95103190D01*
X116198198Y-95072001D01*
X116406132Y-95072001D01*
X116426999Y-95074056D01*
X116447866Y-95072001D01*
X116447873Y-95072001D01*
X116510313Y-95065851D01*
X116590426Y-95041549D01*
X116664259Y-95002085D01*
X116728973Y-94948975D01*
X116742282Y-94932758D01*
X117143919Y-94531121D01*
X117159785Y-94539602D01*
X117376561Y-94605360D01*
X117545508Y-94622000D01*
X117658492Y-94622000D01*
X117827439Y-94605360D01*
X118044215Y-94539602D01*
X118243997Y-94432816D01*
X118419107Y-94289107D01*
X118562816Y-94113997D01*
X118669602Y-93914215D01*
X118735360Y-93697439D01*
X118736391Y-93686967D01*
X118957345Y-93686967D01*
X119022046Y-93913951D01*
X119129786Y-94123951D01*
X119276425Y-94308897D01*
X119456327Y-94461682D01*
X119662579Y-94576434D01*
X119887255Y-94648743D01*
X119927033Y-94656654D01*
X120115000Y-94587173D01*
X120115000Y-93499000D01*
X120169000Y-93499000D01*
X120169000Y-94587173D01*
X120356967Y-94656654D01*
X120396745Y-94648743D01*
X120621421Y-94576434D01*
X120827673Y-94461682D01*
X121007575Y-94308897D01*
X121154214Y-94123951D01*
X121261954Y-93913951D01*
X121326655Y-93686967D01*
X121257198Y-93499000D01*
X120169000Y-93499000D01*
X120115000Y-93499000D01*
X119026802Y-93499000D01*
X118957345Y-93686967D01*
X118736391Y-93686967D01*
X118757564Y-93472000D01*
X118736392Y-93257033D01*
X118957345Y-93257033D01*
X119026802Y-93445000D01*
X120115000Y-93445000D01*
X120115000Y-92356827D01*
X120169000Y-92356827D01*
X120169000Y-93445000D01*
X121257198Y-93445000D01*
X121326655Y-93257033D01*
X121261954Y-93030049D01*
X121154214Y-92820049D01*
X121007575Y-92635103D01*
X120992147Y-92622000D01*
X124778287Y-92622000D01*
X124780000Y-93356500D01*
X124868500Y-93445000D01*
X125957000Y-93445000D01*
X125957000Y-92356500D01*
X126011000Y-92356500D01*
X126011000Y-93445000D01*
X127099500Y-93445000D01*
X127188000Y-93356500D01*
X127189713Y-92622000D01*
X127182878Y-92552604D01*
X127162636Y-92485875D01*
X127129765Y-92424376D01*
X127085527Y-92370473D01*
X127031624Y-92326235D01*
X126970125Y-92293364D01*
X126903396Y-92273122D01*
X126834000Y-92266287D01*
X126099500Y-92268000D01*
X126011000Y-92356500D01*
X125957000Y-92356500D01*
X125868500Y-92268000D01*
X125134000Y-92266287D01*
X125064604Y-92273122D01*
X124997875Y-92293364D01*
X124936376Y-92326235D01*
X124882473Y-92370473D01*
X124838235Y-92424376D01*
X124805364Y-92485875D01*
X124785122Y-92552604D01*
X124778287Y-92622000D01*
X120992147Y-92622000D01*
X120827673Y-92482318D01*
X120621421Y-92367566D01*
X120396745Y-92295257D01*
X120356967Y-92287346D01*
X120169000Y-92356827D01*
X120115000Y-92356827D01*
X119927033Y-92287346D01*
X119887255Y-92295257D01*
X119662579Y-92367566D01*
X119456327Y-92482318D01*
X119276425Y-92635103D01*
X119129786Y-92820049D01*
X119022046Y-93030049D01*
X118957345Y-93257033D01*
X118736392Y-93257033D01*
X118735360Y-93246561D01*
X118669602Y-93029785D01*
X118562816Y-92830003D01*
X118419107Y-92654893D01*
X118243997Y-92511184D01*
X118044215Y-92404398D01*
X117827439Y-92338640D01*
X117658492Y-92322000D01*
X117545508Y-92322000D01*
X117376561Y-92338640D01*
X117159785Y-92404398D01*
X116960003Y-92511184D01*
X116784893Y-92654893D01*
X116641184Y-92830003D01*
X116534398Y-93029785D01*
X116468640Y-93246561D01*
X116446436Y-93472000D01*
X116468640Y-93697439D01*
X116534398Y-93914215D01*
X116542879Y-93930081D01*
X116250959Y-94222001D01*
X115934179Y-94222001D01*
X116022816Y-94113997D01*
X116129602Y-93914215D01*
X116195360Y-93697439D01*
X116217564Y-93472000D01*
X116195360Y-93246561D01*
X116129602Y-93029785D01*
X116022816Y-92830003D01*
X115879107Y-92654893D01*
X115703997Y-92511184D01*
X115504215Y-92404398D01*
X115287439Y-92338640D01*
X115118492Y-92322000D01*
X115005508Y-92322000D01*
X114836561Y-92338640D01*
X114619785Y-92404398D01*
X114420003Y-92511184D01*
X114244893Y-92654893D01*
X114101184Y-92830003D01*
X113994398Y-93029785D01*
X113928640Y-93246561D01*
X113906436Y-93472000D01*
X113928640Y-93697439D01*
X113994398Y-93914215D01*
X114101184Y-94113997D01*
X114189821Y-94222001D01*
X112129865Y-94222001D01*
X112108998Y-94219946D01*
X112088131Y-94222001D01*
X112088125Y-94222001D01*
X112034097Y-94227322D01*
X112025684Y-94228151D01*
X112001382Y-94235523D01*
X111945572Y-94252453D01*
X111871739Y-94291917D01*
X111807025Y-94345027D01*
X111793720Y-94361239D01*
X110567960Y-95587000D01*
X109784824Y-95587000D01*
X109779602Y-95569785D01*
X109672816Y-95370003D01*
X109529107Y-95194893D01*
X109353997Y-95051184D01*
X109154215Y-94944398D01*
X108937439Y-94878640D01*
X108768492Y-94862000D01*
X108655508Y-94862000D01*
X108486561Y-94878640D01*
X108269785Y-94944398D01*
X108070003Y-95051184D01*
X107894893Y-95194893D01*
X107751184Y-95370003D01*
X107644398Y-95569785D01*
X107578640Y-95786561D01*
X107556436Y-96012000D01*
X107327564Y-96012000D01*
X107305360Y-95786561D01*
X107239602Y-95569785D01*
X107132816Y-95370003D01*
X106989107Y-95194893D01*
X106813997Y-95051184D01*
X106614215Y-94944398D01*
X106397439Y-94878640D01*
X106228492Y-94862000D01*
X106115508Y-94862000D01*
X105946561Y-94878640D01*
X105729785Y-94944398D01*
X105530003Y-95051184D01*
X105354893Y-95194893D01*
X105211184Y-95370003D01*
X105104398Y-95569785D01*
X105038640Y-95786561D01*
X105016436Y-96012000D01*
X102229000Y-96012000D01*
X102229000Y-93472000D01*
X105016436Y-93472000D01*
X105038640Y-93697439D01*
X105104398Y-93914215D01*
X105211184Y-94113997D01*
X105354893Y-94289107D01*
X105530003Y-94432816D01*
X105729785Y-94539602D01*
X105946561Y-94605360D01*
X106115508Y-94622000D01*
X106228492Y-94622000D01*
X106397439Y-94605360D01*
X106614215Y-94539602D01*
X106813997Y-94432816D01*
X106989107Y-94289107D01*
X107132816Y-94113997D01*
X107239602Y-93914215D01*
X107305360Y-93697439D01*
X107327564Y-93472000D01*
X107556436Y-93472000D01*
X107578640Y-93697439D01*
X107644398Y-93914215D01*
X107751184Y-94113997D01*
X107894893Y-94289107D01*
X108070003Y-94432816D01*
X108269785Y-94539602D01*
X108486561Y-94605360D01*
X108655508Y-94622000D01*
X108768492Y-94622000D01*
X108937439Y-94605360D01*
X109154215Y-94539602D01*
X109353997Y-94432816D01*
X109529107Y-94289107D01*
X109672816Y-94113997D01*
X109779602Y-93914215D01*
X109845360Y-93697439D01*
X109867564Y-93472000D01*
X109845360Y-93246561D01*
X109779602Y-93029785D01*
X109672816Y-92830003D01*
X109529107Y-92654893D01*
X109353997Y-92511184D01*
X109154215Y-92404398D01*
X108937439Y-92338640D01*
X108768492Y-92322000D01*
X108655508Y-92322000D01*
X108486561Y-92338640D01*
X108269785Y-92404398D01*
X108070003Y-92511184D01*
X107894893Y-92654893D01*
X107751184Y-92830003D01*
X107644398Y-93029785D01*
X107578640Y-93246561D01*
X107556436Y-93472000D01*
X107327564Y-93472000D01*
X107305360Y-93246561D01*
X107239602Y-93029785D01*
X107132816Y-92830003D01*
X106989107Y-92654893D01*
X106813997Y-92511184D01*
X106614215Y-92404398D01*
X106397439Y-92338640D01*
X106228492Y-92322000D01*
X106115508Y-92322000D01*
X105946561Y-92338640D01*
X105729785Y-92404398D01*
X105530003Y-92511184D01*
X105354893Y-92654893D01*
X105211184Y-92830003D01*
X105104398Y-93029785D01*
X105038640Y-93246561D01*
X105016436Y-93472000D01*
X102229000Y-93472000D01*
X102229000Y-92220339D01*
X102233297Y-92176519D01*
X102240699Y-92152002D01*
X102252720Y-92129392D01*
X102268903Y-92109551D01*
X102288632Y-92093230D01*
X102311158Y-92081050D01*
X102335617Y-92073479D01*
X102378227Y-92069000D01*
X132315661Y-92069000D01*
X132359481Y-92073297D01*
M02*
